franck_hertz/data/bad/NewFile3.csv

CH1,CH2,Start,Increment,
Volt,Volt,-2.340000e-02,5.000000e-05
3.240000e+00,1.400000e-01,
3.360000e+00,6.000000e-02,
3.240000e+00,6.000000e-02,
3.400000e+00,1.400000e-01,
3.320000e+00,8.000000e-02,
3.400000e+00,1.400000e-01,
3.320000e+00,8.000000e-02,
3.440000e+00,1.400000e-01,
3.360000e+00,1.200000e-01,
3.440000e+00,6.000000e-02,
3.360000e+00,8.000000e-02,
3.480000e+00,1.200000e-01,
3.480000e+00,1.200000e-01,
3.360000e+00,8.000000e-02,
3.400000e+00,8.000000e-02,
3.480000e+00,1.400000e-01,
3.400000e+00,1.200000e-01,
3.520000e+00,6.000000e-02,
3.440000e+00,1.200000e-01,
3.520000e+00,6.000000e-02,
3.440000e+00,1.400000e-01,
3.560000e+00,6.000000e-02,
3.480000e+00,8.000000e-02,
3.560000e+00,1.400000e-01,
3.480000e+00,8.000000e-02,
3.600000e+00,1.400000e-01,
3.600000e+00,8.000000e-02,
3.480000e+00,1.400000e-01,
3.600000e+00,1.400000e-01,
3.520000e+00,8.000000e-02,
3.640000e+00,1.400000e-01,
3.520000e+00,8.000000e-02,
3.560000e+00,1.400000e-01,
3.680000e+00,8.000000e-02,
3.560000e+00,1.400000e-01,
3.680000e+00,8.000000e-02,
3.600000e+00,1.000000e-01,
3.680000e+00,1.600000e-01,
3.600000e+00,1.000000e-01,
3.720000e+00,1.600000e-01,
3.640000e+00,1.000000e-01,
3.720000e+00,1.600000e-01,
3.640000e+00,1.000000e-01,
3.800000e+00,1.600000e-01,
3.680000e+00,1.000000e-01,
3.800000e+00,1.600000e-01,
3.680000e+00,1.600000e-01,
3.840000e+00,1.000000e-01,
3.680000e+00,1.600000e-01,
3.840000e+00,1.000000e-01,
3.760000e+00,1.000000e-01,
3.840000e+00,1.600000e-01,
3.760000e+00,1.600000e-01,
3.880000e+00,1.000000e-01,
3.800000e+00,1.600000e-01,
3.880000e+00,1.000000e-01,
3.800000e+00,1.000000e-01,
3.920000e+00,1.600000e-01,
3.840000e+00,1.000000e-01,
3.920000e+00,1.600000e-01,
3.840000e+00,1.000000e-01,
3.960000e+00,1.600000e-01,
3.960000e+00,1.000000e-01,
3.840000e+00,1.600000e-01,
3.880000e+00,1.000000e-01,
3.960000e+00,1.600000e-01,
4.000000e+00,1.000000e-01,
3.880000e+00,1.600000e-01,
3.920000e+00,1.000000e-01,
4.000000e+00,1.600000e-01,
3.920000e+00,1.000000e-01,
4.040000e+00,1.600000e-01,
3.960000e+00,1.000000e-01,
4.040000e+00,1.600000e-01,
3.960000e+00,1.000000e-01,
4.080000e+00,1.600000e-01,
4.000000e+00,1.600000e-01,
4.080000e+00,1.000000e-01,
4.000000e+00,1.000000e-01,
4.120000e+00,1.800000e-01,
4.040000e+00,1.200000e-01,
4.120000e+00,1.800000e-01,
4.040000e+00,1.200000e-01,
4.160000e+00,1.800000e-01,
4.040000e+00,1.800000e-01,
4.160000e+00,1.200000e-01,
4.160000e+00,1.800000e-01,
4.080000e+00,1.200000e-01,
4.080000e+00,1.400000e-01,
4.240000e+00,2.000000e-01,
4.120000e+00,1.400000e-01,
4.240000e+00,2.000000e-01,
4.240000e+00,2.000000e-01,
4.120000e+00,1.400000e-01,
4.200000e+00,1.400000e-01,
4.280000e+00,2.000000e-01,
4.200000e+00,1.400000e-01,
4.320000e+00,2.000000e-01,
4.240000e+00,1.400000e-01,
4.320000e+00,2.000000e-01,
4.240000e+00,1.400000e-01,
4.360000e+00,2.000000e-01,
4.240000e+00,1.400000e-01,
4.360000e+00,2.000000e-01,
4.280000e+00,1.200000e-01,
4.360000e+00,2.000000e-01,
4.400000e+00,1.800000e-01,
4.280000e+00,1.200000e-01,
4.320000e+00,1.800000e-01,
4.400000e+00,1.200000e-01,
4.320000e+00,1.800000e-01,
4.440000e+00,1.200000e-01,
4.360000e+00,1.800000e-01,
4.440000e+00,1.200000e-01,
4.360000e+00,1.800000e-01,
4.480000e+00,1.200000e-01,
4.400000e+00,1.200000e-01,
4.480000e+00,1.800000e-01,
4.480000e+00,1.800000e-01,
4.400000e+00,1.200000e-01,
4.400000e+00,1.800000e-01,
4.520000e+00,1.200000e-01,
4.440000e+00,1.800000e-01,
4.560000e+00,1.200000e-01,
4.440000e+00,1.200000e-01,
4.560000e+00,2.000000e-01,
4.560000e+00,1.400000e-01,
4.480000e+00,2.000000e-01,
4.480000e+00,1.400000e-01,
4.600000e+00,2.000000e-01,
4.520000e+00,2.000000e-01,
4.600000e+00,1.400000e-01,
4.520000e+00,1.600000e-01,
4.640000e+00,2.200000e-01,
4.560000e+00,2.200000e-01,
4.680000e+00,1.600000e-01,
4.560000e+00,1.800000e-01,
4.680000e+00,2.400000e-01,
4.720000e+00,1.800000e-01,
4.560000e+00,2.400000e-01,
4.640000e+00,2.400000e-01,
4.720000e+00,1.800000e-01,
4.680000e+00,2.400000e-01,
4.760000e+00,1.800000e-01,
4.680000e+00,2.400000e-01,
4.760000e+00,1.800000e-01,
4.680000e+00,2.400000e-01,
4.800000e+00,1.800000e-01,
4.720000e+00,2.400000e-01,
4.800000e+00,1.800000e-01,
4.720000e+00,2.400000e-01,
4.840000e+00,1.800000e-01,
4.760000e+00,2.400000e-01,
4.840000e+00,1.800000e-01,
4.760000e+00,1.800000e-01,
4.880000e+00,2.400000e-01,
4.800000e+00,2.200000e-01,
4.880000e+00,1.600000e-01,
4.800000e+00,2.200000e-01,
4.880000e+00,1.400000e-01,
4.800000e+00,2.200000e-01,
4.920000e+00,1.600000e-01,
4.920000e+00,2.200000e-01,
4.840000e+00,1.600000e-01,
4.840000e+00,1.600000e-01,
4.960000e+00,2.200000e-01,
4.880000e+00,1.600000e-01,
4.960000e+00,2.200000e-01,
4.880000e+00,1.600000e-01,
5.000000e+00,2.200000e-01,
4.920000e+00,2.200000e-01,
5.000000e+00,1.600000e-01,
4.920000e+00,2.200000e-01,
5.040000e+00,1.600000e-01,
5.040000e+00,2.200000e-01,
4.920000e+00,1.600000e-01,
4.960000e+00,1.800000e-01,
5.080000e+00,2.400000e-01,
4.960000e+00,2.400000e-01,
5.080000e+00,1.800000e-01,
5.000000e+00,2.000000e-01,
5.120000e+00,2.600000e-01,
5.000000e+00,2.000000e-01,
5.160000e+00,2.600000e-01,
5.160000e+00,2.000000e-01,
5.040000e+00,2.800000e-01,
5.040000e+00,2.800000e-01,
5.200000e+00,2.200000e-01,
5.120000e+00,2.800000e-01,
5.200000e+00,2.200000e-01,
5.120000e+00,2.400000e-01,
5.240000e+00,3.000000e-01,
5.160000e+00,2.400000e-01,
5.240000e+00,3.200000e-01,
5.160000e+00,2.400000e-01,
5.240000e+00,3.200000e-01,
5.280000e+00,3.200000e-01,
5.160000e+00,2.400000e-01,
5.200000e+00,2.400000e-01,
5.320000e+00,3.200000e-01,
5.200000e+00,2.400000e-01,
5.320000e+00,3.000000e-01,
5.240000e+00,2.400000e-01,
5.320000e+00,3.000000e-01,
5.240000e+00,2.800000e-01,
5.360000e+00,2.200000e-01,
5.280000e+00,2.800000e-01,
5.360000e+00,2.200000e-01,
5.280000e+00,2.200000e-01,
5.400000e+00,2.800000e-01,
5.320000e+00,2.800000e-01,
5.400000e+00,2.000000e-01,
5.320000e+00,2.600000e-01,
5.440000e+00,2.000000e-01,
5.360000e+00,2.600000e-01,
5.440000e+00,2.000000e-01,
5.360000e+00,2.600000e-01,
5.480000e+00,2.000000e-01,
5.480000e+00,2.600000e-01,
5.360000e+00,2.000000e-01,
5.480000e+00,2.200000e-01,
5.400000e+00,2.800000e-01,
5.400000e+00,2.200000e-01,
5.520000e+00,2.800000e-01,
5.440000e+00,2.200000e-01,
5.520000e+00,2.800000e-01,
5.440000e+00,2.200000e-01,
5.600000e+00,3.000000e-01,
5.480000e+00,2.400000e-01,
5.600000e+00,3.200000e-01,
5.480000e+00,2.400000e-01,
5.640000e+00,3.200000e-01,
5.560000e+00,2.600000e-01,
5.640000e+00,3.400000e-01,
5.560000e+00,2.600000e-01,
5.640000e+00,3.600000e-01,
5.680000e+00,3.000000e-01,
5.560000e+00,3.600000e-01,
5.600000e+00,3.000000e-01,
5.680000e+00,3.800000e-01,
5.600000e+00,3.200000e-01,
5.720000e+00,3.800000e-01,
5.640000e+00,3.200000e-01,
5.720000e+00,3.800000e-01,
5.640000e+00,3.800000e-01,
5.760000e+00,3.200000e-01,
5.680000e+00,3.800000e-01,
5.760000e+00,3.200000e-01,
5.680000e+00,3.800000e-01,
5.800000e+00,3.200000e-01,
5.720000e+00,3.800000e-01,
5.800000e+00,3.200000e-01,
5.720000e+00,3.200000e-01,
5.800000e+00,3.800000e-01,
5.840000e+00,3.200000e-01,
5.720000e+00,3.800000e-01,
5.840000e+00,3.800000e-01,
5.760000e+00,3.000000e-01,
5.760000e+00,3.600000e-01,
5.880000e+00,3.000000e-01,
5.800000e+00,3.600000e-01,
5.880000e+00,2.800000e-01,
5.800000e+00,3.000000e-01,
5.920000e+00,3.600000e-01,
5.840000e+00,3.000000e-01,
5.920000e+00,3.600000e-01,
5.840000e+00,3.000000e-01,
5.960000e+00,3.600000e-01,
5.880000e+00,3.000000e-01,
5.960000e+00,3.600000e-01,
5.880000e+00,3.000000e-01,
6.040000e+00,3.600000e-01,
5.880000e+00,3.000000e-01,
6.040000e+00,3.600000e-01,
5.920000e+00,3.600000e-01,
6.040000e+00,3.000000e-01,
5.920000e+00,3.000000e-01,
6.080000e+00,3.800000e-01,
6.000000e+00,3.200000e-01,
6.080000e+00,3.800000e-01,
6.000000e+00,3.200000e-01,
6.120000e+00,4.000000e-01,
6.040000e+00,3.400000e-01,
6.120000e+00,4.000000e-01,
6.040000e+00,3.600000e-01,
6.160000e+00,4.200000e-01,
6.160000e+00,3.600000e-01,
6.040000e+00,4.400000e-01,
6.080000e+00,4.400000e-01,
6.200000e+00,3.800000e-01,
6.120000e+00,4.000000e-01,
6.200000e+00,4.600000e-01,
6.120000e+00,4.600000e-01,
6.240000e+00,4.000000e-01,
6.240000e+00,4.200000e-01,
6.120000e+00,4.800000e-01,
6.160000e+00,4.800000e-01,
6.280000e+00,4.200000e-01,
6.280000e+00,4.800000e-01,
6.160000e+00,4.200000e-01,
6.200000e+00,4.800000e-01,
6.280000e+00,4.200000e-01,
6.200000e+00,4.800000e-01,
6.320000e+00,4.200000e-01,
6.240000e+00,4.800000e-01,
6.320000e+00,4.200000e-01,
6.240000e+00,4.200000e-01,
6.360000e+00,4.800000e-01,
6.280000e+00,4.600000e-01,
6.360000e+00,4.000000e-01,
6.280000e+00,4.600000e-01,
6.360000e+00,4.000000e-01,
6.320000e+00,4.000000e-01,
6.400000e+00,4.600000e-01,
6.400000e+00,4.600000e-01,
6.320000e+00,4.000000e-01,
6.320000e+00,4.400000e-01,
6.480000e+00,3.800000e-01,
6.360000e+00,4.400000e-01,
6.480000e+00,3.800000e-01,
6.360000e+00,4.400000e-01,
6.520000e+00,3.800000e-01,
6.440000e+00,4.000000e-01,
6.520000e+00,4.600000e-01,
6.440000e+00,4.000000e-01,
6.520000e+00,4.600000e-01,
6.440000e+00,4.600000e-01,
6.560000e+00,4.000000e-01,
6.480000e+00,4.000000e-01,
6.560000e+00,4.800000e-01,
6.480000e+00,4.200000e-01,
6.600000e+00,5.000000e-01,
6.520000e+00,4.400000e-01,
6.640000e+00,5.000000e-01,
6.520000e+00,4.600000e-01,
6.640000e+00,5.200000e-01,
6.560000e+00,4.800000e-01,
6.640000e+00,5.600000e-01,
6.560000e+00,5.200000e-01,
6.680000e+00,5.800000e-01,
6.680000e+00,5.200000e-01,
6.560000e+00,5.800000e-01,
6.600000e+00,5.400000e-01,
6.720000e+00,6.000000e-01,
6.720000e+00,5.600000e-01,
6.600000e+00,6.200000e-01,
6.640000e+00,5.800000e-01,
6.760000e+00,6.400000e-01,
6.760000e+00,5.800000e-01,
6.640000e+00,6.400000e-01,
6.680000e+00,6.000000e-01,
6.760000e+00,6.400000e-01,
6.680000e+00,6.000000e-01,
6.800000e+00,6.400000e-01,
6.720000e+00,6.000000e-01,
6.840000e+00,6.400000e-01,
6.720000e+00,6.400000e-01,
6.840000e+00,5.800000e-01,
6.720000e+00,6.400000e-01,
6.840000e+00,5.800000e-01,
6.760000e+00,5.800000e-01,
6.880000e+00,6.400000e-01,
6.760000e+00,5.800000e-01,
6.920000e+00,6.400000e-01,
6.800000e+00,5.800000e-01,
6.960000e+00,6.200000e-01,
6.880000e+00,5.800000e-01,
6.960000e+00,6.200000e-01,
6.880000e+00,5.800000e-01,
7.000000e+00,6.200000e-01,
6.880000e+00,5.800000e-01,
7.000000e+00,6.200000e-01,
6.920000e+00,6.200000e-01,
7.000000e+00,5.800000e-01,
6.920000e+00,6.200000e-01,
7.040000e+00,5.600000e-01,
6.960000e+00,5.800000e-01,
7.040000e+00,6.400000e-01,
6.960000e+00,6.400000e-01,
7.080000e+00,5.800000e-01,
7.000000e+00,6.000000e-01,
7.080000e+00,6.600000e-01,
7.000000e+00,6.000000e-01,
7.120000e+00,6.800000e-01,
7.040000e+00,6.200000e-01,
7.120000e+00,7.000000e-01,
7.040000e+00,6.600000e-01,
7.160000e+00,7.200000e-01,
7.040000e+00,6.600000e-01,
7.160000e+00,7.400000e-01,
7.080000e+00,7.000000e-01,
7.160000e+00,7.800000e-01,
7.080000e+00,7.200000e-01,
7.200000e+00,8.000000e-01,
7.120000e+00,7.600000e-01,
7.200000e+00,8.200000e-01,
7.120000e+00,7.800000e-01,
7.240000e+00,8.400000e-01,
7.120000e+00,8.000000e-01,
7.240000e+00,8.800000e-01,
7.160000e+00,8.200000e-01,
7.280000e+00,8.800000e-01,
7.280000e+00,8.200000e-01,
7.160000e+00,9.000000e-01,
7.200000e+00,9.000000e-01,
7.320000e+00,8.400000e-01,
7.200000e+00,8.600000e-01,
7.360000e+00,9.200000e-01,
7.240000e+00,8.600000e-01,
7.360000e+00,9.200000e-01,
7.240000e+00,8.600000e-01,
7.400000e+00,9.200000e-01,
7.320000e+00,9.200000e-01,
7.400000e+00,8.600000e-01,
7.320000e+00,9.200000e-01,
7.440000e+00,8.600000e-01,
7.360000e+00,9.200000e-01,
7.440000e+00,8.600000e-01,
7.360000e+00,9.200000e-01,
7.480000e+00,8.600000e-01,
7.400000e+00,9.200000e-01,
7.480000e+00,8.600000e-01,
7.400000e+00,9.200000e-01,
7.520000e+00,8.600000e-01,
7.400000e+00,8.800000e-01,
7.520000e+00,9.200000e-01,
7.440000e+00,8.800000e-01,
7.520000e+00,9.400000e-01,
7.440000e+00,8.800000e-01,
7.560000e+00,9.600000e-01,
7.480000e+00,9.000000e-01,
7.560000e+00,9.600000e-01,
7.480000e+00,9.200000e-01,
7.600000e+00,9.800000e-01,
7.520000e+00,9.400000e-01,
7.600000e+00,1.020000e+00,
7.520000e+00,9.800000e-01,
7.640000e+00,1.060000e+00,
7.560000e+00,1.020000e+00,
7.640000e+00,1.100000e+00,
7.560000e+00,1.040000e+00,
7.680000e+00,1.120000e+00,
7.560000e+00,1.080000e+00,
7.680000e+00,1.160000e+00,
7.600000e+00,1.120000e+00,
7.720000e+00,1.200000e+00,
7.600000e+00,1.160000e+00,
7.720000e+00,1.260000e+00,
7.640000e+00,1.220000e+00,
7.760000e+00,1.300000e+00,
7.640000e+00,1.260000e+00,
7.800000e+00,1.340000e+00,
7.680000e+00,1.300000e+00,
7.800000e+00,1.360000e+00,
7.680000e+00,1.320000e+00,
7.840000e+00,1.400000e+00,
7.760000e+00,1.360000e+00,
7.840000e+00,1.420000e+00,
7.760000e+00,1.380000e+00,
7.880000e+00,1.440000e+00,
7.800000e+00,1.400000e+00,
7.880000e+00,1.480000e+00,
7.800000e+00,1.440000e+00,
7.920000e+00,1.500000e+00,
7.800000e+00,1.460000e+00,
7.920000e+00,1.540000e+00,
7.840000e+00,1.480000e+00,
7.920000e+00,1.540000e+00,
7.840000e+00,1.500000e+00,
7.960000e+00,1.580000e+00,
7.880000e+00,1.520000e+00,
7.960000e+00,1.580000e+00,
7.880000e+00,1.540000e+00,
8.000000e+00,1.600000e+00,
7.920000e+00,1.560000e+00,
8.000000e+00,1.640000e+00,
7.920000e+00,1.600000e+00,
8.040000e+00,1.680000e+00,
8.040000e+00,1.640000e+00,
7.920000e+00,1.740000e+00,
7.960000e+00,1.700000e+00,
8.080000e+00,1.820000e+00,
8.080000e+00,1.880000e+00,
0.000000e+00,2.000000e-02,
8.000000e-02,8.000000e-02,
0.000000e+00,0.000000e+00,
0.000000e+00,8.000000e-02,
8.000000e-02,0.000000e+00,
8.000000e-02,8.000000e-02,
0.000000e+00,0.000000e+00,
8.000000e-02,8.000000e-02,
0.000000e+00,0.000000e+00,
8.000000e-02,8.000000e-02,
0.000000e+00,0.000000e+00,
8.000000e-02,0.000000e+00,
0.000000e+00,8.000000e-02,
8.000000e-02,8.000000e-02,
0.000000e+00,0.000000e+00,
1.200000e-01,8.000000e-02,
0.000000e+00,0.000000e+00,
4.000000e-02,2.000000e-02,
1.200000e-01,8.000000e-02,
4.000000e-02,8.000000e-02,
1.200000e-01,0.000000e+00,
0.000000e+00,8.000000e-02,
1.200000e-01,0.000000e+00,
4.000000e-02,8.000000e-02,
1.200000e-01,0.000000e+00,
0.000000e+00,8.000000e-02,
1.200000e-01,0.000000e+00,
1.200000e-01,8.000000e-02,
0.000000e+00,0.000000e+00,
0.000000e+00,0.000000e+00,
1.200000e-01,8.000000e-02,
1.200000e-01,8.000000e-02,
0.000000e+00,0.000000e+00,
0.000000e+00,8.000000e-02,
1.200000e-01,0.000000e+00,
8.000000e-02,8.000000e-02,
0.000000e+00,0.000000e+00,
8.000000e-02,8.000000e-02,
0.000000e+00,0.000000e+00,
8.000000e-02,8.000000e-02,
0.000000e+00,0.000000e+00,
8.000000e-02,0.000000e+00,
0.000000e+00,8.000000e-02,
8.000000e-02,8.000000e-02,
0.000000e+00,0.000000e+00,
8.000000e-02,0.000000e+00,
0.000000e+00,8.000000e-02,
8.000000e-02,8.000000e-02,
0.000000e+00,0.000000e+00,
8.000000e-02,0.000000e+00,
0.000000e+00,8.000000e-02,
8.000000e-02,0.000000e+00,
0.000000e+00,8.000000e-02,
8.000000e-02,0.000000e+00,
0.000000e+00,8.000000e-02,
8.000000e-02,0.000000e+00,
0.000000e+00,8.000000e-02,
8.000000e-02,0.000000e+00,
0.000000e+00,8.000000e-02,
8.000000e-02,0.000000e+00,
0.000000e+00,8.000000e-02,
8.000000e-02,0.000000e+00,
0.000000e+00,6.000000e-02,
8.000000e-02,0.000000e+00,
0.000000e+00,8.000000e-02,
8.000000e-02,0.000000e+00,
0.000000e+00,8.000000e-02,
8.000000e-02,0.000000e+00,
0.000000e+00,8.000000e-02,
8.000000e-02,0.000000e+00,
0.000000e+00,8.000000e-02,
8.000000e-02,0.000000e+00,
0.000000e+00,8.000000e-02,
8.000000e-02,0.000000e+00,
0.000000e+00,8.000000e-02,
8.000000e-02,0.000000e+00,
0.000000e+00,8.000000e-02,
8.000000e-02,0.000000e+00,
0.000000e+00,8.000000e-02,
8.000000e-02,0.000000e+00,
0.000000e+00,8.000000e-02,
8.000000e-02,0.000000e+00,
0.000000e+00,8.000000e-02,
1.200000e-01,0.000000e+00,
0.000000e+00,8.000000e-02,
0.000000e+00,0.000000e+00,
1.200000e-01,8.000000e-02,
4.000000e-02,0.000000e+00,
1.200000e-01,8.000000e-02,
4.000000e-02,0.000000e+00,
1.200000e-01,8.000000e-02,
1.200000e-01,0.000000e+00,
0.000000e+00,8.000000e-02,
4.000000e-02,0.000000e+00,
1.200000e-01,8.000000e-02,
4.000000e-02,0.000000e+00,
1.200000e-01,8.000000e-02,
4.000000e-02,0.000000e+00,
1.200000e-01,8.000000e-02,
1.200000e-01,0.000000e+00,
0.000000e+00,8.000000e-02,
1.200000e-01,0.000000e+00,
0.000000e+00,8.000000e-02,
4.000000e-02,0.000000e+00,
1.200000e-01,8.000000e-02,
4.000000e-02,0.000000e+00,
1.200000e-01,8.000000e-02,
4.000000e-02,0.000000e+00,
1.200000e-01,8.000000e-02,
4.000000e-02,0.000000e+00,
1.200000e-01,8.000000e-02,
4.000000e-02,0.000000e+00,
1.200000e-01,8.000000e-02,
1.200000e-01,8.000000e-02,
4.000000e-02,0.000000e+00,
1.200000e-01,0.000000e+00,
4.000000e-02,8.000000e-02,
4.000000e-02,0.000000e+00,
1.200000e-01,8.000000e-02,
1.200000e-01,0.000000e+00,
4.000000e-02,8.000000e-02,
4.000000e-02,8.000000e-02,
1.200000e-01,0.000000e+00,
4.000000e-02,0.000000e+00,
1.200000e-01,8.000000e-02,
1.200000e-01,0.000000e+00,
4.000000e-02,8.000000e-02,
4.000000e-02,0.000000e+00,
1.200000e-01,8.000000e-02,
4.000000e-02,0.000000e+00,
1.200000e-01,8.000000e-02,
1.200000e-01,0.000000e+00,
4.000000e-02,8.000000e-02,
4.000000e-02,0.000000e+00,
1.200000e-01,8.000000e-02,
4.000000e-02,0.000000e+00,
1.200000e-01,8.000000e-02,
4.000000e-02,0.000000e+00,
1.200000e-01,8.000000e-02,
1.200000e-01,0.000000e+00,
4.000000e-02,8.000000e-02,
4.000000e-02,8.000000e-02,
1.200000e-01,0.000000e+00,
1.200000e-01,8.000000e-02,
4.000000e-02,0.000000e+00,
4.000000e-02,0.000000e+00,
1.200000e-01,8.000000e-02,
4.000000e-02,0.000000e+00,
1.200000e-01,8.000000e-02,
4.000000e-02,0.000000e+00,
1.200000e-01,8.000000e-02,
4.000000e-02,0.000000e+00,
1.200000e-01,8.000000e-02,
4.000000e-02,0.000000e+00,
1.200000e-01,8.000000e-02,
1.200000e-01,8.000000e-02,
4.000000e-02,0.000000e+00,
1.200000e-01,8.000000e-02,
4.000000e-02,0.000000e+00,
1.200000e-01,0.000000e+00,
4.000000e-02,8.000000e-02,
4.000000e-02,8.000000e-02,
1.200000e-01,0.000000e+00,
1.200000e-01,0.000000e+00,
4.000000e-02,8.000000e-02,
1.200000e-01,0.000000e+00,
4.000000e-02,8.000000e-02,
1.200000e-01,8.000000e-02,
4.000000e-02,0.000000e+00,
1.200000e-01,0.000000e+00,
4.000000e-02,8.000000e-02,
1.200000e-01,0.000000e+00,
4.000000e-02,8.000000e-02,
1.200000e-01,0.000000e+00,
4.000000e-02,8.000000e-02,
4.000000e-02,0.000000e+00,
1.200000e-01,8.000000e-02,
4.000000e-02,8.000000e-02,
1.200000e-01,0.000000e+00,
4.000000e-02,8.000000e-02,
1.200000e-01,0.000000e+00,
1.200000e-01,8.000000e-02,
4.000000e-02,0.000000e+00,
4.000000e-02,0.000000e+00,
1.200000e-01,8.000000e-02,
4.000000e-02,0.000000e+00,
1.200000e-01,8.000000e-02,
1.200000e-01,8.000000e-02,
4.000000e-02,0.000000e+00,
4.000000e-02,0.000000e+00,
1.200000e-01,8.000000e-02,
1.200000e-01,8.000000e-02,
4.000000e-02,0.000000e+00,
4.000000e-02,0.000000e+00,
1.200000e-01,8.000000e-02,
4.000000e-02,8.000000e-02,
1.200000e-01,0.000000e+00,
1.200000e-01,0.000000e+00,
4.000000e-02,8.000000e-02,
6.000000e-01,8.000000e-02,
-1.200000e-01,-2.800000e-01,
4.000000e-02,2.000000e-02,
2.800000e-01,1.000000e-01,
1.200000e-01,1.000000e-01,
2.800000e-01,2.000000e-02,
2.000000e-01,2.000000e-02,
2.800000e-01,1.000000e-01,
2.000000e-01,1.000000e-01,
3.200000e-01,2.000000e-02,
2.400000e-01,1.000000e-01,
3.200000e-01,2.000000e-02,
2.400000e-01,1.000000e-01,
3.600000e-01,2.000000e-02,
2.800000e-01,1.000000e-01,
3.600000e-01,2.000000e-02,
2.800000e-01,1.000000e-01,
4.000000e-01,2.000000e-02,
3.200000e-01,1.000000e-01,
4.000000e-01,2.000000e-02,
3.200000e-01,1.000000e-01,
4.400000e-01,2.000000e-02,
3.200000e-01,1.000000e-01,
4.400000e-01,2.000000e-02,
4.400000e-01,1.000000e-01,
3.600000e-01,2.000000e-02,
3.600000e-01,1.000000e-01,
4.800000e-01,2.000000e-02,
4.000000e-01,1.000000e-01,
4.800000e-01,2.000000e-02,
4.000000e-01,1.000000e-01,
5.200000e-01,2.000000e-02,
4.400000e-01,1.000000e-01,
5.200000e-01,2.000000e-02,
4.400000e-01,1.000000e-01,
5.600000e-01,4.000000e-02,
4.800000e-01,1.000000e-01,
5.600000e-01,2.000000e-02,
4.800000e-01,1.000000e-01,
6.000000e-01,2.000000e-02,
6.000000e-01,1.000000e-01,
4.800000e-01,2.000000e-02,
5.200000e-01,1.000000e-01,
6.400000e-01,2.000000e-02,
5.200000e-01,1.000000e-01,
6.800000e-01,2.000000e-02,
5.600000e-01,1.000000e-01,
6.800000e-01,2.000000e-02,
5.600000e-01,1.000000e-01,
7.200000e-01,2.000000e-02,
6.400000e-01,1.000000e-01,
7.200000e-01,2.000000e-02,
6.400000e-01,1.000000e-01,
7.600000e-01,2.000000e-02,
7.600000e-01,1.000000e-01,
6.400000e-01,2.000000e-02,
