franck_hertz/data/good/NewFile7.csv

CH1,CH2,Start,Increment,
Volt,Volt,-5.340000e-02,1.000000e-04
2.960000e+00,1.600000e-02,
3.080000e+00,7.600000e-02,
3.000000e+00,6.400000e-02,
3.120000e+00,2.000000e-02,
3.040000e+00,2.400000e-02,
3.160000e+00,8.000000e-02,
3.160000e+00,2.800000e-02,
3.080000e+00,7.600000e-02,
3.120000e+00,3.600000e-02,
3.200000e+00,9.200000e-02,
3.160000e+00,4.000000e-02,
3.240000e+00,9.200000e-02,
3.200000e+00,8.800000e-02,
3.320000e+00,3.600000e-02,
3.200000e+00,2.800000e-02,
3.360000e+00,9.200000e-02,
3.320000e+00,8.000000e-02,
3.400000e+00,3.600000e-02,
3.320000e+00,2.400000e-02,
3.440000e+00,8.800000e-02,
3.360000e+00,2.800000e-02,
3.480000e+00,8.400000e-02,
3.480000e+00,8.000000e-02,
3.400000e+00,2.000000e-02,
3.440000e+00,1.600000e-02,
3.560000e+00,8.400000e-02,
3.480000e+00,7.600000e-02,
3.560000e+00,3.600000e-02,
3.520000e+00,2.800000e-02,
3.640000e+00,9.200000e-02,
3.640000e+00,9.600000e-02,
3.560000e+00,4.800000e-02,
3.600000e+00,5.200000e-02,
3.680000e+00,1.080000e-01,
3.760000e+00,5.200000e-02,
3.600000e+00,1.200000e-01,
3.640000e+00,1.080000e-01,
3.800000e+00,6.400000e-02,
3.680000e+00,5.200000e-02,
3.840000e+00,1.120000e-01,
3.760000e+00,1.120000e-01,
3.880000e+00,5.200000e-02,
3.800000e+00,9.200000e-02,
3.920000e+00,4.400000e-02,
3.840000e+00,3.600000e-02,
3.960000e+00,9.200000e-02,
3.880000e+00,9.200000e-02,
3.960000e+00,4.400000e-02,
4.000000e+00,8.400000e-02,
3.920000e+00,3.600000e-02,
3.960000e+00,9.600000e-02,
4.040000e+00,4.800000e-02,
4.000000e+00,5.600000e-02,
4.080000e+00,1.000000e-01,
4.040000e+00,5.600000e-02,
4.120000e+00,1.280000e-01,
4.200000e+00,7.600000e-02,
4.040000e+00,1.280000e-01,
4.080000e+00,8.800000e-02,
4.240000e+00,1.360000e-01,
4.120000e+00,1.480000e-01,
4.280000e+00,9.200000e-02,
4.200000e+00,1.280000e-01,
4.320000e+00,8.800000e-02,
4.240000e+00,1.280000e-01,
4.360000e+00,7.600000e-02,
4.280000e+00,1.280000e-01,
4.360000e+00,7.200000e-02,
4.320000e+00,1.000000e-01,
4.400000e+00,5.600000e-02,
4.360000e+00,1.120000e-01,
4.440000e+00,5.200000e-02,
4.400000e+00,5.600000e-02,
4.480000e+00,1.000000e-01,
4.440000e+00,2.800000e-02,
4.520000e+00,1.160000e-01,
4.480000e+00,6.400000e-02,
4.560000e+00,1.240000e-01,
4.480000e+00,8.000000e-02,
4.640000e+00,1.360000e-01,
4.520000e+00,1.600000e-01,
4.680000e+00,9.600000e-02,
4.560000e+00,1.080000e-01,
4.720000e+00,1.760000e-01,
4.720000e+00,1.640000e-01,
4.640000e+00,1.240000e-01,
4.680000e+00,1.760000e-01,
4.800000e+00,1.160000e-01,
4.720000e+00,1.560000e-01,
4.800000e+00,1.080000e-01,
4.760000e+00,1.520000e-01,
4.840000e+00,8.800000e-02,
4.800000e+00,8.800000e-02,
4.880000e+00,1.240000e-01,
4.840000e+00,7.200000e-02,
4.920000e+00,1.280000e-01,
4.880000e+00,1.240000e-01,
4.960000e+00,7.200000e-02,
4.880000e+00,7.200000e-02,
5.000000e+00,1.240000e-01,
4.920000e+00,7.600000e-02,
5.040000e+00,1.480000e-01,
5.040000e+00,9.600000e-02,
4.960000e+00,1.480000e-01,
5.000000e+00,1.160000e-01,
5.160000e+00,1.760000e-01,
5.040000e+00,1.400000e-01,
5.200000e+00,2.000000e-01,
5.120000e+00,1.520000e-01,
5.200000e+00,2.040000e-01,
5.160000e+00,1.560000e-01,
5.280000e+00,2.120000e-01,
5.200000e+00,2.080000e-01,
5.280000e+00,1.480000e-01,
5.240000e+00,1.840000e-01,
5.320000e+00,1.200000e-01,
5.280000e+00,1.720000e-01,
5.360000e+00,1.120000e-01,
5.320000e+00,1.520000e-01,
5.400000e+00,9.200000e-02,
5.320000e+00,1.400000e-01,
5.440000e+00,8.800000e-02,
5.360000e+00,1.480000e-01,
5.480000e+00,9.200000e-02,
5.400000e+00,9.600000e-02,
5.560000e+00,1.560000e-01,
5.440000e+00,1.200000e-01,
5.600000e+00,1.760000e-01,
5.480000e+00,1.400000e-01,
5.600000e+00,1.960000e-01,
5.560000e+00,1.560000e-01,
5.640000e+00,2.200000e-01,
5.600000e+00,2.400000e-01,
5.680000e+00,1.920000e-01,
5.640000e+00,2.040000e-01,
5.720000e+00,2.560000e-01,
5.640000e+00,2.600000e-01,
5.760000e+00,2.000000e-01,
5.720000e+00,2.480000e-01,
5.800000e+00,2.000000e-01,
5.720000e+00,2.440000e-01,
5.840000e+00,1.720000e-01,
5.760000e+00,2.120000e-01,
5.880000e+00,1.520000e-01,
5.800000e+00,1.760000e-01,
5.880000e+00,1.280000e-01,
5.840000e+00,1.320000e-01,
6.000000e+00,1.880000e-01,
5.880000e+00,1.280000e-01,
6.000000e+00,1.840000e-01,
5.920000e+00,1.480000e-01,
6.040000e+00,2.000000e-01,
6.000000e+00,1.640000e-01,
6.080000e+00,2.280000e-01,
6.040000e+00,2.000000e-01,
6.120000e+00,2.640000e-01,
6.160000e+00,2.240000e-01,
6.080000e+00,2.960000e-01,
6.080000e+00,2.480000e-01,
6.200000e+00,3.040000e-01,
6.160000e+00,2.680000e-01,
6.240000e+00,3.160000e-01,
6.200000e+00,3.240000e-01,
6.280000e+00,2.240000e-01,
6.200000e+00,2.960000e-01,
6.320000e+00,2.360000e-01,
6.240000e+00,2.840000e-01,
6.360000e+00,2.240000e-01,
6.280000e+00,2.720000e-01,
6.440000e+00,2.040000e-01,
6.320000e+00,2.400000e-01,
6.440000e+00,1.920000e-01,
6.360000e+00,2.440000e-01,
6.480000e+00,1.880000e-01,
6.440000e+00,2.000000e-01,
6.520000e+00,2.400000e-01,
6.480000e+00,2.080000e-01,
6.560000e+00,2.760000e-01,
6.520000e+00,2.400000e-01,
6.600000e+00,3.120000e-01,
6.560000e+00,2.840000e-01,
6.640000e+00,3.560000e-01,
6.560000e+00,3.240000e-01,
6.680000e+00,3.880000e-01,
6.600000e+00,3.440000e-01,
6.720000e+00,4.040000e-01,
6.640000e+00,3.600000e-01,
6.760000e+00,4.240000e-01,
6.680000e+00,4.240000e-01,
6.800000e+00,3.600000e-01,
6.720000e+00,3.880000e-01,
6.880000e+00,3.320000e-01,
6.760000e+00,3.840000e-01,
6.880000e+00,3.200000e-01,
6.800000e+00,3.560000e-01,
6.920000e+00,3.040000e-01,
6.880000e+00,3.360000e-01,
6.960000e+00,2.760000e-01,
6.920000e+00,2.800000e-01,
7.000000e+00,3.360000e-01,
6.960000e+00,2.920000e-01,
7.040000e+00,3.560000e-01,
6.960000e+00,3.040000e-01,
7.080000e+00,3.880000e-01,
7.000000e+00,3.480000e-01,
7.120000e+00,4.240000e-01,
7.040000e+00,3.960000e-01,
7.160000e+00,4.840000e-01,
7.080000e+00,4.600000e-01,
7.200000e+00,5.240000e-01,
7.120000e+00,4.880000e-01,
7.200000e+00,5.400000e-01,
7.160000e+00,5.040000e-01,
7.320000e+00,5.680000e-01,
7.200000e+00,5.200000e-01,
7.320000e+00,5.640000e-01,
7.240000e+00,5.400000e-01,
7.360000e+00,4.840000e-01,
7.320000e+00,5.280000e-01,
7.400000e+00,4.680000e-01,
7.360000e+00,5.000000e-01,
7.440000e+00,4.480000e-01,
7.360000e+00,4.400000e-01,
7.480000e+00,4.920000e-01,
7.440000e+00,4.400000e-01,
7.520000e+00,4.880000e-01,
7.440000e+00,4.560000e-01,
7.560000e+00,5.200000e-01,
7.480000e+00,4.920000e-01,
7.600000e+00,5.720000e-01,
7.520000e+00,5.400000e-01,
7.600000e+00,6.240000e-01,
7.560000e+00,6.080000e-01,
7.680000e+00,7.120000e-01,
7.600000e+00,6.800000e-01,
7.760000e+00,7.600000e-01,
7.640000e+00,7.440000e-01,
7.760000e+00,8.160000e-01,
7.680000e+00,7.880000e-01,
7.800000e+00,8.600000e-01,
7.760000e+00,8.160000e-01,
7.840000e+00,8.640000e-01,
7.800000e+00,8.280000e-01,
7.880000e+00,8.920000e-01,
7.920000e+00,9.120000e-01,
7.800000e+00,8.320000e-01,
7.880000e+00,8.800000e-01,
7.960000e+00,9.440000e-01,
7.880000e+00,9.440000e-01,
8.000000e+00,9.440000e-01,
7.920000e+00,9.440000e-01,
8.040000e+00,9.440000e-01,
7.960000e+00,9.440000e-01,
8.080000e+00,9.440000e-01,
8.000000e+00,9.440000e-01,
8.080000e+00,9.440000e-01,
8.040000e+00,9.440000e-01,
8.120000e+00,9.440000e-01,
8.240000e+00,9.440000e-01,
0.000000e+00,-7.600000e-02,
4.000000e-02,-7.600000e-02,
0.000000e+00,-7.600000e-02,
0.000000e+00,-7.600000e-02,
8.000000e-02,-7.600000e-02,
0.000000e+00,-7.600000e-02,
8.000000e-02,-7.600000e-02,
4.000000e-02,-7.600000e-02,
0.000000e+00,-7.600000e-02,
0.000000e+00,-7.600000e-02,
8.000000e-02,-7.600000e-02,
4.000000e-02,-7.600000e-02,
0.000000e+00,-7.600000e-02,
4.000000e-02,-7.600000e-02,
0.000000e+00,4.000000e-02,
4.000000e-02,3.600000e-02,
0.000000e+00,3.200000e-01,
0.000000e+00,3.160000e-01,
8.000000e-02,5.760000e-01,
0.000000e+00,5.400000e-01,
8.000000e-02,7.720000e-01,
8.000000e-02,7.400000e-01,
0.000000e+00,9.440000e-01,
0.000000e+00,8.880000e-01,
8.000000e-02,9.440000e-01,
0.000000e+00,9.440000e-01,
8.000000e-02,9.440000e-01,
0.000000e+00,9.440000e-01,
8.000000e-02,9.440000e-01,
0.000000e+00,9.440000e-01,
8.000000e-02,9.440000e-01,
0.000000e+00,9.440000e-01,
8.000000e-02,9.440000e-01,
0.000000e+00,9.440000e-01,
8.000000e-02,9.440000e-01,
0.000000e+00,9.440000e-01,
8.000000e-02,9.440000e-01,
0.000000e+00,9.440000e-01,
8.000000e-02,9.440000e-01,
4.000000e-02,9.440000e-01,
0.000000e+00,9.440000e-01,
4.000000e-02,9.440000e-01,
0.000000e+00,9.440000e-01,
4.000000e-02,9.440000e-01,
0.000000e+00,9.440000e-01,
4.000000e-02,9.440000e-01,
0.000000e+00,8.800000e-01,
0.000000e+00,8.880000e-01,
8.000000e-02,7.840000e-01,
8.000000e-02,7.960000e-01,
0.000000e+00,7.040000e-01,
8.000000e-02,7.120000e-01,
0.000000e+00,6.160000e-01,
8.000000e-02,6.240000e-01,
0.000000e+00,5.280000e-01,
0.000000e+00,5.360000e-01,
8.000000e-02,4.400000e-01,
4.000000e-02,4.480000e-01,
8.000000e-02,3.560000e-01,
8.000000e-02,3.680000e-01,
0.000000e+00,2.760000e-01,
8.000000e-02,2.920000e-01,
0.000000e+00,2.080000e-01,
0.000000e+00,2.200000e-01,
8.000000e-02,1.280000e-01,
4.000000e-02,1.520000e-01,
8.000000e-02,7.600000e-02,
4.000000e-02,8.800000e-02,
8.000000e-02,2.000000e-02,
8.000000e-02,2.800000e-02,
4.000000e-02,-2.800000e-02,
4.000000e-02,-1.600000e-02,
8.000000e-02,-6.800000e-02,
4.000000e-02,-6.000000e-02,
8.000000e-02,-7.600000e-02,
4.000000e-02,-7.600000e-02,
8.000000e-02,-7.600000e-02,
4.000000e-02,-7.600000e-02,
8.000000e-02,-7.600000e-02,
4.000000e-02,-7.600000e-02,
8.000000e-02,-7.600000e-02,
4.000000e-02,-7.600000e-02,
8.000000e-02,-7.600000e-02,
4.000000e-02,-7.600000e-02,
8.000000e-02,-7.600000e-02,
4.000000e-02,-7.600000e-02,
8.000000e-02,-7.600000e-02,
4.000000e-02,-7.600000e-02,
8.000000e-02,-7.600000e-02,
4.000000e-02,-7.600000e-02,
8.000000e-02,-7.600000e-02,
4.000000e-02,-7.600000e-02,
8.000000e-02,-7.600000e-02,
8.000000e-02,-7.600000e-02,
0.000000e+00,-7.600000e-02,
4.000000e-02,-7.600000e-02,
8.000000e-02,-7.600000e-02,
5.200000e-01,-7.600000e-02,
-1.200000e-01,-7.600000e-02,
1.200000e-01,-7.600000e-02,
2.400000e-01,-7.600000e-02,
2.800000e-01,-7.600000e-02,
2.000000e-01,-7.600000e-02,
2.400000e-01,-7.600000e-02,
3.200000e-01,-7.200000e-02,
2.800000e-01,-7.600000e-02,
3.600000e-01,-5.600000e-02,
3.200000e-01,-7.200000e-02,
4.000000e-01,-4.400000e-02,
3.600000e-01,-5.600000e-02,
4.400000e-01,-2.400000e-02,
4.000000e-01,-4.400000e-02,
4.800000e-01,-1.200000e-02,
4.400000e-01,-3.200000e-02,
5.200000e-01,4.000000e-03,
4.800000e-01,-1.600000e-02,
5.600000e-01,1.200000e-02,
4.800000e-01,0.000000e+00,
5.600000e-01,1.600000e-02,
5.200000e-01,4.000000e-03,
6.400000e-01,2.800000e-02,
5.600000e-01,1.600000e-02,
6.800000e-01,4.000000e-02,
6.400000e-01,2.400000e-02,
7.600000e-01,4.800000e-02,
6.800000e-01,2.800000e-02,
7.600000e-01,7.200000e-02,
7.200000e-01,4.000000e-02,
8.000000e-01,6.000000e-02,
7.600000e-01,4.400000e-02,
8.400000e-01,6.400000e-02,
8.000000e-01,4.800000e-02,
8.800000e-01,7.200000e-02,
8.400000e-01,5.200000e-02,
9.200000e-01,8.800000e-02,
8.800000e-01,5.600000e-02,
9.600000e-01,8.000000e-02,
8.800000e-01,5.600000e-02,
1.000000e+00,7.600000e-02,
9.600000e-01,5.600000e-02,
1.080000e+00,8.000000e-02,
9.600000e-01,3.600000e-02,
1.080000e+00,8.800000e-02,
1.000000e+00,7.600000e-02,
1.120000e+00,5.200000e-02,
1.080000e+00,5.600000e-02,
1.160000e+00,7.600000e-02,
1.120000e+00,7.600000e-02,
1.200000e+00,5.200000e-02,
1.160000e+00,7.200000e-02,
1.240000e+00,5.200000e-02,
1.200000e+00,4.000000e-03,
1.280000e+00,1.120000e-01,
1.200000e+00,4.800000e-02,
1.320000e+00,6.400000e-02,
1.280000e+00,6.400000e-02,
1.360000e+00,4.400000e-02,
1.320000e+00,6.000000e-02,
1.400000e+00,4.400000e-02,
1.320000e+00,5.600000e-02,
1.440000e+00,4.000000e-02,
1.400000e+00,5.600000e-02,
1.520000e+00,4.000000e-02,
1.400000e+00,5.600000e-02,
1.520000e+00,3.600000e-02,
1.440000e+00,5.200000e-02,
1.560000e+00,2.800000e-02,
1.520000e+00,4.800000e-02,
1.600000e+00,2.400000e-02,
1.560000e+00,5.200000e-02,
1.640000e+00,2.800000e-02,
1.600000e+00,6.000000e-02,
1.680000e+00,2.000000e-02,
1.640000e+00,2.000000e-02,
1.720000e+00,4.400000e-02,
1.680000e+00,2.000000e-02,
1.760000e+00,4.400000e-02,
1.720000e+00,4.000000e-02,
1.800000e+00,2.000000e-02,
1.800000e+00,4.000000e-02,
1.720000e+00,2.000000e-02,
1.760000e+00,4.000000e-02,
1.840000e+00,1.600000e-02,
1.800000e+00,1.600000e-02,
1.880000e+00,4.000000e-02,
1.840000e+00,3.600000e-02,
1.920000e+00,1.600000e-02,
1.880000e+00,3.600000e-02,
2.000000e+00,1.600000e-02,
1.920000e+00,4.000000e-02,
2.040000e+00,1.200000e-02,
2.000000e+00,1.600000e-02,
2.080000e+00,3.600000e-02,
2.040000e+00,3.600000e-02,
2.120000e+00,1.200000e-02,
2.080000e+00,1.600000e-02,
2.160000e+00,3.600000e-02,
2.120000e+00,3.600000e-02,
2.200000e+00,1.600000e-02,
2.120000e+00,6.000000e-02,
2.240000e+00,0.000000e+00,
2.160000e+00,1.600000e-02,
2.240000e+00,4.000000e-02,
2.280000e+00,4.000000e-02,
2.200000e+00,2.000000e-02,
2.240000e+00,2.000000e-02,
2.320000e+00,4.400000e-02,
2.280000e+00,4.400000e-02,
2.360000e+00,2.000000e-02,
2.320000e+00,4.400000e-02,
2.440000e+00,2.000000e-02,
2.360000e+00,2.400000e-02,
2.480000e+00,4.400000e-02,
2.440000e+00,2.400000e-02,
2.520000e+00,4.400000e-02,
2.480000e+00,4.400000e-02,
2.560000e+00,2.000000e-02,
2.520000e+00,8.000000e-03,
2.600000e+00,6.000000e-02,
2.560000e+00,2.400000e-02,
2.640000e+00,4.400000e-02,
2.560000e+00,4.800000e-02,
2.680000e+00,2.400000e-02,
2.680000e+00,2.800000e-02,
2.600000e+00,5.200000e-02,
2.640000e+00,3.600000e-02,
2.720000e+00,5.200000e-02,
2.680000e+00,2.800000e-02,
2.760000e+00,7.600000e-02,
2.720000e+00,4.000000e-02,
2.800000e+00,6.000000e-02,
2.760000e+00,5.600000e-02,
2.880000e+00,4.000000e-02,
2.800000e+00,5.600000e-02,
2.920000e+00,4.000000e-02,
2.880000e+00,9.600000e-02,
2.960000e+00,8.000000e-03,
2.920000e+00,3.600000e-02,
3.000000e+00,5.600000e-02,
2.960000e+00,5.200000e-02,
3.040000e+00,3.600000e-02,
3.000000e+00,3.600000e-02,
3.080000e+00,5.600000e-02,
3.000000e+00,8.400000e-02,
3.120000e+00,2.400000e-02,
3.040000e+00,6.000000e-02,
3.120000e+00,4.000000e-02,
3.080000e+00,4.400000e-02,
3.160000e+00,7.200000e-02,
3.120000e+00,4.800000e-02,
3.200000e+00,7.600000e-02,
3.160000e+00,5.600000e-02,
3.240000e+00,8.400000e-02,
3.200000e+00,7.600000e-02,
3.320000e+00,5.600000e-02,
3.240000e+00,8.400000e-02,
3.360000e+00,4.800000e-02,
3.320000e+00,7.600000e-02,
3.400000e+00,4.800000e-02,
3.360000e+00,4.800000e-02,
3.440000e+00,7.200000e-02,
3.400000e+00,6.400000e-02,
3.480000e+00,4.400000e-02,
3.480000e+00,6.000000e-02,
3.400000e+00,4.000000e-02,
3.440000e+00,4.400000e-02,
3.520000e+00,6.400000e-02,
3.480000e+00,4.400000e-02,
3.560000e+00,7.200000e-02,
3.520000e+00,5.200000e-02,
3.600000e+00,8.000000e-02,
3.560000e+00,6.000000e-02,
3.640000e+00,8.400000e-02,
3.600000e+00,6.400000e-02,
3.680000e+00,9.200000e-02,
3.640000e+00,7.600000e-02,
3.760000e+00,9.600000e-02,
3.680000e+00,9.600000e-02,
3.800000e+00,8.000000e-02,
3.760000e+00,1.080000e-01,
3.840000e+00,7.600000e-02,
3.800000e+00,9.200000e-02,
3.880000e+00,7.200000e-02,
3.800000e+00,8.400000e-02,
3.880000e+00,6.000000e-02,
3.840000e+00,8.000000e-02,
3.920000e+00,5.600000e-02,
3.880000e+00,7.600000e-02,
3.960000e+00,5.600000e-02,
3.920000e+00,5.200000e-02,
4.000000e+00,7.600000e-02,
3.960000e+00,6.000000e-02,
4.040000e+00,8.400000e-02,
4.000000e+00,6.400000e-02,
4.080000e+00,9.200000e-02,
4.040000e+00,7.600000e-02,
4.120000e+00,1.080000e-01,
4.080000e+00,8.800000e-02,
4.200000e+00,1.160000e-01,
4.120000e+00,1.000000e-01,
4.240000e+00,1.240000e-01,
4.200000e+00,1.080000e-01,
4.280000e+00,1.280000e-01,
4.200000e+00,9.200000e-02,
4.280000e+00,1.320000e-01,
4.320000e+00,1.160000e-01,
4.240000e+00,9.200000e-02,
4.280000e+00,1.080000e-01,
4.360000e+00,8.400000e-02,
4.320000e+00,9.600000e-02,
4.400000e+00,7.600000e-02,
4.360000e+00,9.200000e-02,
4.440000e+00,6.400000e-02,
4.400000e+00,6.400000e-02,
4.480000e+00,9.200000e-02,
4.440000e+00,7.200000e-02,
4.520000e+00,9.600000e-02,
4.480000e+00,8.000000e-02,
4.560000e+00,1.080000e-01,
4.520000e+00,9.200000e-02,
4.640000e+00,1.240000e-01,
4.520000e+00,7.200000e-02,
4.680000e+00,1.520000e-01,
4.560000e+00,1.280000e-01,
4.680000e+00,1.560000e-01,
4.720000e+00,1.360000e-01,
4.640000e+00,1.600000e-01,
4.680000e+00,1.600000e-01,
4.760000e+00,1.320000e-01,
4.720000e+00,1.520000e-01,
4.800000e+00,1.240000e-01,
4.760000e+00,9.600000e-02,
4.840000e+00,1.520000e-01,
4.800000e+00,1.240000e-01,
4.880000e+00,9.200000e-02,
4.840000e+00,1.120000e-01,
4.920000e+00,8.800000e-02,
4.880000e+00,1.000000e-01,
4.960000e+00,8.400000e-02,
4.920000e+00,1.240000e-01,
5.000000e+00,7.600000e-02,
4.920000e+00,9.600000e-02,
5.040000e+00,1.240000e-01,
4.960000e+00,1.080000e-01,
5.120000e+00,1.400000e-01,
5.000000e+00,1.280000e-01,
5.120000e+00,1.680000e-01,
5.040000e+00,1.480000e-01,
5.160000e+00,1.840000e-01,
5.120000e+00,1.680000e-01,
5.200000e+00,1.960000e-01,
5.160000e+00,1.960000e-01,
5.240000e+00,1.720000e-01,
5.200000e+00,1.920000e-01,
5.280000e+00,1.600000e-01,
5.240000e+00,1.760000e-01,
5.320000e+00,1.480000e-01,
5.280000e+00,1.600000e-01,
5.360000e+00,1.280000e-01,
5.320000e+00,1.400000e-01,
5.400000e+00,1.160000e-01,
5.360000e+00,1.120000e-01,
5.440000e+00,1.400000e-01,
5.360000e+00,1.280000e-01,
5.480000e+00,1.080000e-01,
5.480000e+00,1.120000e-01,
5.400000e+00,1.400000e-01,
5.440000e+00,1.280000e-01,
5.560000e+00,1.640000e-01,
5.480000e+00,1.480000e-01,
5.600000e+00,1.880000e-01,
5.560000e+00,1.760000e-01,
5.640000e+00,2.120000e-01,
5.600000e+00,2.040000e-01,
5.680000e+00,2.320000e-01,
5.640000e+00,2.200000e-01,
5.720000e+00,2.440000e-01,
5.680000e+00,2.440000e-01,
5.760000e+00,2.240000e-01,
5.720000e+00,2.360000e-01,
5.800000e+00,2.040000e-01,
5.720000e+00,2.200000e-01,
5.840000e+00,1.840000e-01,
5.760000e+00,1.360000e-01,
5.880000e+00,2.080000e-01,
5.800000e+00,1.840000e-01,
5.880000e+00,1.520000e-01,
5.840000e+00,1.480000e-01,
5.920000e+00,1.640000e-01,
5.880000e+00,1.480000e-01,
6.000000e+00,1.720000e-01,
5.920000e+00,1.560000e-01,
6.040000e+00,1.920000e-01,
6.000000e+00,1.760000e-01,
6.080000e+00,2.200000e-01,
6.040000e+00,2.040000e-01,
6.120000e+00,2.480000e-01,
6.080000e+00,2.360000e-01,
6.160000e+00,2.800000e-01,
6.120000e+00,2.680000e-01,
6.200000e+00,3.040000e-01,
6.160000e+00,2.920000e-01,
6.240000e+00,3.080000e-01,
6.160000e+00,3.080000e-01,
6.280000e+00,2.800000e-01,
6.200000e+00,2.960000e-01,
6.280000e+00,2.640000e-01,
6.240000e+00,2.760000e-01,
6.320000e+00,2.360000e-01,
6.280000e+00,2.480000e-01,
6.360000e+00,2.200000e-01,
6.320000e+00,2.480000e-01,
6.440000e+00,2.000000e-01,
6.360000e+00,2.240000e-01,
6.480000e+00,2.040000e-01,
6.440000e+00,2.080000e-01,
6.520000e+00,2.360000e-01,
6.480000e+00,2.240000e-01,
6.560000e+00,2.680000e-01,
6.520000e+00,2.560000e-01,
6.600000e+00,3.000000e-01,
6.520000e+00,2.920000e-01,
6.640000e+00,3.400000e-01,
6.600000e+00,3.320000e-01,
6.680000e+00,3.760000e-01,
6.680000e+00,3.600000e-01,
6.600000e+00,3.960000e-01,
6.640000e+00,3.800000e-01,
6.720000e+00,4.120000e-01,
6.680000e+00,4.080000e-01,
6.760000e+00,3.760000e-01,
6.720000e+00,3.920000e-01,
6.800000e+00,3.520000e-01,
6.760000e+00,3.720000e-01,
6.880000e+00,3.320000e-01,
6.800000e+00,3.480000e-01,
6.920000e+00,3.000000e-01,
6.880000e+00,3.240000e-01,
6.960000e+00,3.000000e-01,
6.920000e+00,2.960000e-01,
7.000000e+00,3.200000e-01,
6.960000e+00,3.040000e-01,
7.040000e+00,3.400000e-01,
6.960000e+00,3.040000e-01,
7.080000e+00,3.760000e-01,
7.040000e+00,3.600000e-01,
7.120000e+00,4.240000e-01,
7.040000e+00,4.120000e-01,
7.120000e+00,4.760000e-01,
7.080000e+00,4.640000e-01,
7.160000e+00,5.240000e-01,
7.120000e+00,5.000000e-01,
7.200000e+00,5.400000e-01,
7.160000e+00,5.280000e-01,
7.240000e+00,5.520000e-01,
7.200000e+00,5.520000e-01,
7.320000e+00,5.240000e-01,
7.240000e+00,5.400000e-01,
7.360000e+00,5.040000e-01,
7.320000e+00,5.200000e-01,
7.400000e+00,4.840000e-01,
7.360000e+00,4.960000e-01,
7.440000e+00,4.400000e-01,
7.360000e+00,4.760000e-01,
7.480000e+00,4.520000e-01,
7.400000e+00,4.520000e-01,
7.520000e+00,4.800000e-01,
7.480000e+00,4.640000e-01,
7.560000e+00,5.040000e-01,
7.560000e+00,4.960000e-01,
7.480000e+00,5.600000e-01,
7.520000e+00,5.520000e-01,
7.600000e+00,6.240000e-01,
7.560000e+00,6.160000e-01,
7.640000e+00,6.920000e-01,
7.600000e+00,6.840000e-01,
7.680000e+00,7.520000e-01,
