franck_hertz/data/good/NewFile10.csv

CH1,CH2,Start,Increment,
Volt,Volt,-3.000000e-02,5.000000e-05
8.162400e+00,9.156800e-01,
4.560000e-02,-7.372000e-02,
1.824000e-01,-7.372000e-02,
4.560000e-02,-7.372000e-02,
1.824000e-01,-7.372000e-02,
4.560000e-02,-7.372000e-02,
4.560000e-02,-7.372000e-02,
1.824000e-01,-7.372000e-02,
4.560000e-02,-7.372000e-02,
1.368000e-01,-7.372000e-02,
4.560000e-02,-7.372000e-02,
1.824000e-01,-7.372000e-02,
4.560000e-02,-7.372000e-02,
1.824000e-01,-7.372000e-02,
4.560000e-02,-7.372000e-02,
1.824000e-01,-7.372000e-02,
4.560000e-02,-7.372000e-02,
1.824000e-01,-7.372000e-02,
4.560000e-02,-7.372000e-02,
1.824000e-01,-7.372000e-02,
4.560000e-02,-7.372000e-02,
1.824000e-01,-7.372000e-02,
4.560000e-02,-7.372000e-02,
1.824000e-01,-7.372000e-02,
1.824000e-01,-7.372000e-02,
4.560000e-02,-7.372000e-02,
4.560000e-02,-7.372000e-02,
1.824000e-01,-7.372000e-02,
4.560000e-02,-7.372000e-02,
1.824000e-01,-7.372000e-02,
4.560000e-02,-7.372000e-02,
1.824000e-01,-7.372000e-02,
1.824000e-01,-7.372000e-02,
4.560000e-02,-5.820000e-02,
4.560000e-02,-6.596000e-02,
1.824000e-01,6.208000e-02,
4.560000e-02,5.432000e-02,
1.824000e-01,1.746000e-01,
4.560000e-02,1.668400e-01,
1.824000e-01,2.871200e-01,
4.560000e-02,2.677200e-01,
1.824000e-01,3.957600e-01,
1.824000e-01,3.608400e-01,
4.560000e-02,4.694800e-01,
4.560000e-02,4.617200e-01,
1.824000e-01,5.470800e-01,
4.560000e-02,5.276800e-01,
1.824000e-01,6.246800e-01,
1.824000e-01,6.091600e-01,
4.560000e-02,7.022800e-01,
1.824000e-01,6.712400e-01,
4.560000e-02,7.682400e-01,
1.824000e-01,7.333200e-01,
4.560000e-02,8.070400e-01,
1.824000e-01,7.760000e-01,
4.560000e-02,8.458400e-01,
1.824000e-01,8.264400e-01,
4.560000e-02,8.962800e-01,
1.824000e-01,8.730000e-01,
4.560000e-02,9.156800e-01,
4.560000e-02,9.156800e-01,
1.824000e-01,8.924000e-01,
1.824000e-01,9.156800e-01,
4.560000e-02,9.156800e-01,
4.560000e-02,9.156800e-01,
1.824000e-01,9.156800e-01,
1.824000e-01,9.156800e-01,
4.560000e-02,9.156800e-01,
1.824000e-01,9.156800e-01,
4.560000e-02,9.156800e-01,
4.560000e-02,9.156800e-01,
1.824000e-01,9.156800e-01,
1.824000e-01,9.156800e-01,
4.560000e-02,9.156800e-01,
4.560000e-02,9.156800e-01,
1.824000e-01,9.156800e-01,
1.824000e-01,9.156800e-01,
4.560000e-02,9.156800e-01,
1.824000e-01,9.156800e-01,
4.560000e-02,9.156800e-01,
4.560000e-02,9.156800e-01,
1.824000e-01,9.156800e-01,
1.824000e-01,9.156800e-01,
4.560000e-02,9.118000e-01,
1.824000e-01,9.156800e-01,
4.560000e-02,8.962800e-01,
4.560000e-02,9.040400e-01,
1.824000e-01,8.652400e-01,
4.560000e-02,8.846400e-01,
1.824000e-01,8.419600e-01,
4.560000e-02,8.536000e-01,
1.824000e-01,8.148000e-01,
4.560000e-02,8.264400e-01,
1.824000e-01,7.837600e-01,
4.560000e-02,7.954000e-01,
1.824000e-01,7.527200e-01,
4.560000e-02,7.604800e-01,
1.824000e-01,7.178000e-01,
4.560000e-02,7.294400e-01,
1.824000e-01,6.828800e-01,
4.560000e-02,6.945200e-01,
1.824000e-01,6.557200e-01,
1.824000e-01,6.596000e-01,
4.560000e-02,6.208000e-01,
4.560000e-02,6.285600e-01,
1.824000e-01,5.858800e-01,
1.824000e-01,5.936400e-01,
4.560000e-02,5.470800e-01,
1.824000e-01,5.509600e-01,
4.560000e-02,5.082800e-01,
1.824000e-01,5.199200e-01,
4.560000e-02,4.772400e-01,
1.824000e-01,4.850000e-01,
4.560000e-02,4.384400e-01,
4.560000e-02,4.500800e-01,
1.824000e-01,4.074000e-01,
4.560000e-02,4.151600e-01,
1.824000e-01,3.724800e-01,
1.824000e-01,3.802400e-01,
4.560000e-02,3.336800e-01,
4.560000e-02,3.492000e-01,
1.824000e-01,2.871200e-01,
1.824000e-01,3.181600e-01,
4.560000e-02,2.716000e-01,
1.824000e-01,2.832400e-01,
4.560000e-02,2.444400e-01,
1.824000e-01,2.522000e-01,
4.560000e-02,2.095200e-01,
1.824000e-01,2.211600e-01,
9.120000e-02,1.823600e-01,
1.824000e-01,1.940000e-01,
4.560000e-02,1.552000e-01,
1.368000e-01,1.668400e-01,
2.280000e-01,1.241600e-01,
1.824000e-01,1.358000e-01,
4.560000e-02,1.047600e-01,
1.824000e-01,1.164000e-01,
4.560000e-02,7.760000e-02,
1.824000e-01,8.536000e-02,
4.560000e-02,5.044000e-02,
1.824000e-01,6.208000e-02,
4.560000e-02,3.104000e-02,
1.824000e-01,4.268000e-02,
4.560000e-02,1.164000e-02,
4.560000e-02,2.328000e-02,
1.824000e-01,-7.760000e-03,
4.560000e-02,7.760000e-03,
1.824000e-01,-3.104000e-02,
4.560000e-02,-1.552000e-02,
1.824000e-01,-4.656000e-02,
4.560000e-02,-3.104000e-02,
2.280000e-01,-6.208000e-02,
1.824000e-01,-4.268000e-02,
9.120000e-02,-7.372000e-02,
1.368000e-01,-6.208000e-02,
1.824000e-01,-7.372000e-02,
1.824000e-01,-7.372000e-02,
9.120000e-02,-6.984000e-02,
1.824000e-01,-7.372000e-02,
9.120000e-02,-7.372000e-02,
1.368000e-01,-7.372000e-02,
1.824000e-01,-7.372000e-02,
2.280000e-01,-7.372000e-02,
4.560000e-02,-7.372000e-02,
4.560000e-02,-7.372000e-02,
1.824000e-01,-7.372000e-02,
1.824000e-01,-7.372000e-02,
4.560000e-02,-7.372000e-02,
1.824000e-01,-7.372000e-02,
4.560000e-02,-7.372000e-02,
1.824000e-01,-7.372000e-02,
4.560000e-02,-7.372000e-02,
1.824000e-01,-7.372000e-02,
9.120000e-02,-7.372000e-02,
1.824000e-01,-7.372000e-02,
4.560000e-02,-7.372000e-02,
1.824000e-01,-7.372000e-02,
4.560000e-02,-7.372000e-02,
1.824000e-01,-7.372000e-02,
4.560000e-02,-7.372000e-02,
1.824000e-01,-7.372000e-02,
4.560000e-02,-7.372000e-02,
1.824000e-01,-7.372000e-02,
4.560000e-02,-7.372000e-02,
1.824000e-01,-7.372000e-02,
4.560000e-02,-7.372000e-02,
1.824000e-01,-7.372000e-02,
9.120000e-02,-7.372000e-02,
4.560000e-02,-7.372000e-02,
1.824000e-01,-7.372000e-02,
1.368000e-01,-7.372000e-02,
1.824000e-01,-7.372000e-02,
1.824000e-01,-7.372000e-02,
4.560000e-02,-7.372000e-02,
4.560000e-02,-7.372000e-02,
1.824000e-01,-7.372000e-02,
1.824000e-01,-7.372000e-02,
4.560000e-02,-7.372000e-02,
1.824000e-01,-7.372000e-02,
4.560000e-02,-7.372000e-02,
-9.120000e-02,-7.372000e-02,
3.648000e-01,-7.372000e-02,
1.824000e-01,-7.372000e-02,
3.192000e-01,-7.372000e-02,
3.192000e-01,-7.372000e-02,
1.824000e-01,-6.596000e-02,
3.192000e-01,-7.372000e-02,
1.824000e-01,-5.820000e-02,
1.824000e-01,-7.372000e-02,
3.648000e-01,-4.268000e-02,
2.736000e-01,-7.372000e-02,
3.648000e-01,-3.880000e-02,
3.648000e-01,-7.372000e-02,
2.736000e-01,-4.656000e-02,
3.192000e-01,-3.492000e-02,
4.104000e-01,-7.372000e-02,
3.192000e-01,-3.104000e-02,
4.560000e-01,-7.372000e-02,
4.560000e-01,-5.820000e-02,
3.192000e-01,-1.164000e-02,
3.192000e-01,-6.208000e-02,
5.016000e-01,-7.760000e-03,
4.104000e-01,-5.432000e-02,
5.016000e-01,-1.552000e-02,
5.016000e-01,-4.268000e-02,
4.104000e-01,-3.880000e-03,
4.104000e-01,-3.492000e-02,
5.016000e-01,-3.880000e-03,
4.104000e-01,1.552000e-02,
5.472000e-01,-3.104000e-02,
4.560000e-01,7.760000e-03,
5.928000e-01,-3.492000e-02,
5.928000e-01,-2.716000e-02,
4.560000e-01,1.164000e-02,
5.928000e-01,1.552000e-02,
4.560000e-01,-1.164000e-02,
5.016000e-01,2.716000e-02,
6.384000e-01,-2.716000e-02,
5.472000e-01,-1.164000e-02,
6.384000e-01,3.104000e-02,
6.384000e-01,-1.164000e-02,
5.472000e-01,3.880000e-02,
6.384000e-01,-3.880000e-03,
5.472000e-01,3.880000e-02,
5.928000e-01,7.760000e-03,
7.296000e-01,3.880000e-02,
7.296000e-01,-3.880000e-03,
5.928000e-01,5.432000e-02,
7.296000e-01,1.940000e-02,
5.928000e-01,5.432000e-02,
6.840000e-01,6.208000e-02,
8.208000e-01,1.164000e-02,
6.840000e-01,1.164000e-02,
8.208000e-01,5.432000e-02,
6.840000e-01,2.716000e-02,
8.208000e-01,5.432000e-02,
6.840000e-01,6.596000e-02,
8.664000e-01,1.552000e-02,
7.752000e-01,3.104000e-02,
8.664000e-01,7.372000e-02,
8.664000e-01,7.760000e-02,
7.752000e-01,2.328000e-02,
7.752000e-01,2.716000e-02,
9.120000e-01,6.984000e-02,
8.208000e-01,3.104000e-02,
9.576000e-01,6.596000e-02,
8.208000e-01,6.984000e-02,
9.576000e-01,2.716000e-02,
8.208000e-01,4.268000e-02,
9.576000e-01,7.372000e-02,
9.576000e-01,8.924000e-02,
8.208000e-01,4.268000e-02,
8.208000e-01,3.492000e-02,
1.003200e+00,7.372000e-02,
9.120000e-01,7.372000e-02,
1.003200e+00,4.268000e-02,
9.120000e-01,7.760000e-02,
1.003200e+00,2.716000e-02,
9.120000e-01,2.716000e-02,
1.094400e+00,6.984000e-02,
1.094400e+00,3.880000e-02,
9.576000e-01,8.924000e-02,
9.576000e-01,8.924000e-02,
1.094400e+00,3.492000e-02,
9.576000e-01,4.656000e-02,
1.140000e+00,8.148000e-02,
1.048800e+00,3.104000e-02,
1.140000e+00,8.148000e-02,
1.048800e+00,8.536000e-02,
1.140000e+00,3.104000e-02,
1.048800e+00,8.924000e-02,
1.140000e+00,3.880000e-02,
1.048800e+00,3.880000e-02,
1.231200e+00,7.760000e-02,
1.231200e+00,5.044000e-02,
1.094400e+00,7.372000e-02,
1.094400e+00,7.760000e-02,
1.231200e+00,3.104000e-02,
1.094400e+00,8.148000e-02,
1.276800e+00,2.716000e-02,
1.140000e+00,8.924000e-02,
1.276800e+00,3.492000e-02,
1.276800e+00,8.536000e-02,
1.185600e+00,3.104000e-02,
1.276800e+00,6.984000e-02,
1.185600e+00,3.492000e-02,
1.185600e+00,3.104000e-02,
1.368000e+00,6.984000e-02,
1.185600e+00,3.104000e-02,
1.368000e+00,7.760000e-02,
1.368000e+00,8.924000e-02,
1.231200e+00,4.268000e-02,
1.231200e+00,8.148000e-02,
1.413600e+00,3.104000e-02,
1.322400e+00,3.880000e-02,
1.413600e+00,6.596000e-02,
1.322400e+00,6.984000e-02,
1.413600e+00,4.268000e-02,
1.413600e+00,2.328000e-02,
1.322400e+00,6.984000e-02,
1.322400e+00,2.716000e-02,
1.459200e+00,7.372000e-02,
1.368000e+00,6.984000e-02,
1.504800e+00,2.328000e-02,
1.504800e+00,6.208000e-02,
1.368000e+00,2.716000e-02,
1.368000e+00,2.716000e-02,
1.550400e+00,6.208000e-02,
1.413600e+00,1.940000e-02,
1.596000e+00,6.596000e-02,
1.459200e+00,8.536000e-02,
1.596000e+00,1.164000e-02,
1.550400e+00,1.940000e-02,
1.459200e+00,6.984000e-02,
1.459200e+00,2.328000e-02,
1.641600e+00,5.820000e-02,
1.550400e+00,5.820000e-02,
1.641600e+00,1.940000e-02,
1.641600e+00,1.552000e-02,
1.550400e+00,6.208000e-02,
1.641600e+00,1.940000e-02,
1.550400e+00,6.984000e-02,
1.596000e+00,6.596000e-02,
1.732800e+00,1.552000e-02,
1.596000e+00,5.432000e-02,
1.732800e+00,1.940000e-02,
1.596000e+00,5.432000e-02,
1.732800e+00,2.328000e-02,
1.596000e+00,5.432000e-02,
1.778400e+00,1.940000e-02,
1.687200e+00,1.552000e-02,
1.778400e+00,6.208000e-02,
1.778400e+00,3.880000e-03,
1.687200e+00,5.044000e-02,
1.687200e+00,5.044000e-02,
1.778400e+00,1.552000e-02,
1.732800e+00,2.328000e-02,
1.869600e+00,5.432000e-02,
1.732800e+00,1.552000e-02,
1.869600e+00,5.432000e-02,
1.869600e+00,1.164000e-02,
1.732800e+00,6.596000e-02,
1.732800e+00,7.760000e-03,
1.915200e+00,6.596000e-02,
1.915200e+00,1.164000e-02,
1.824000e+00,5.044000e-02,
1.915200e+00,1.552000e-02,
1.824000e+00,5.432000e-02,
1.915200e+00,-7.760000e-03,
1.824000e+00,6.984000e-02,
1.869600e+00,1.552000e-02,
2.006400e+00,6.596000e-02,
1.869600e+00,3.880000e-03,
2.006400e+00,5.820000e-02,
1.869600e+00,1.552000e-02,
2.006400e+00,5.044000e-02,
1.869600e+00,1.164000e-02,
2.006400e+00,5.044000e-02,
1.960800e+00,5.044000e-02,
2.052000e+00,3.880000e-03,
2.052000e+00,7.760000e-03,
1.960800e+00,6.208000e-02,
1.960800e+00,4.268000e-02,
2.052000e+00,3.880000e-03,
1.960800e+00,4.656000e-02,
2.143200e+00,1.164000e-02,
2.006400e+00,1.164000e-02,
2.143200e+00,4.656000e-02,
2.143200e+00,5.044000e-02,
2.006400e+00,1.552000e-02,
2.143200e+00,4.656000e-02,
2.006400e+00,1.164000e-02,
2.006400e+00,3.880000e-02,
2.188800e+00,3.880000e-03,
2.188800e+00,1.164000e-02,
2.097600e+00,4.268000e-02,
2.097600e+00,1.164000e-02,
2.188800e+00,5.044000e-02,
2.097600e+00,1.552000e-02,
2.234400e+00,5.044000e-02,
2.280000e+00,3.880000e-03,
2.143200e+00,6.208000e-02,
2.280000e+00,6.596000e-02,
2.143200e+00,1.552000e-02,
2.188800e+00,4.656000e-02,
2.325600e+00,1.164000e-02,
2.188800e+00,1.164000e-02,
2.325600e+00,5.044000e-02,
2.325600e+00,0.000000e+00,
2.234400e+00,5.432000e-02,
2.325600e+00,1.164000e-02,
2.234400e+00,6.208000e-02,
2.234400e+00,1.164000e-02,
2.416800e+00,6.208000e-02,
2.325600e+00,1.164000e-02,
2.416800e+00,5.044000e-02,
2.416800e+00,5.044000e-02,
2.280000e+00,1.552000e-02,
2.416800e+00,5.820000e-02,
2.280000e+00,7.760000e-03,
2.325600e+00,5.820000e-02,
2.462400e+00,3.880000e-03,
2.371200e+00,1.552000e-02,
2.508000e+00,6.208000e-02,
2.371200e+00,1.552000e-02,
2.508000e+00,5.432000e-02,
2.371200e+00,1.552000e-02,
2.508000e+00,5.432000e-02,
2.462400e+00,1.940000e-02,
2.553600e+00,5.044000e-02,
2.462400e+00,1.940000e-02,
2.553600e+00,6.208000e-02,
2.462400e+00,1.552000e-02,
2.599200e+00,6.596000e-02,
2.508000e+00,1.552000e-02,
2.644800e+00,5.432000e-02,
2.508000e+00,5.432000e-02,
2.644800e+00,1.552000e-02,
2.644800e+00,6.208000e-02,
2.508000e+00,2.328000e-02,
2.508000e+00,1.164000e-02,
2.644800e+00,6.208000e-02,
2.599200e+00,6.596000e-02,
2.690400e+00,1.552000e-02,
2.599200e+00,5.820000e-02,
2.690400e+00,1.552000e-02,
2.599200e+00,1.552000e-02,
2.690400e+00,6.208000e-02,
2.644800e+00,1.164000e-02,
2.781600e+00,5.820000e-02,
2.781600e+00,6.208000e-02,
2.644800e+00,1.164000e-02,
2.644800e+00,7.372000e-02,
2.781600e+00,2.716000e-02,
2.781600e+00,1.940000e-02,
2.644800e+00,5.820000e-02,
2.736000e+00,6.208000e-02,
2.827200e+00,2.328000e-02,
2.827200e+00,6.596000e-02,
2.736000e+00,1.940000e-02,
2.736000e+00,6.984000e-02,
2.827200e+00,1.552000e-02,
2.736000e+00,2.716000e-02,
2.918400e+00,7.760000e-02,
2.781600e+00,6.596000e-02,
2.918400e+00,3.104000e-02,
2.918400e+00,6.208000e-02,
2.781600e+00,2.716000e-02,
2.918400e+00,3.492000e-02,
2.781600e+00,6.208000e-02,
2.781600e+00,7.372000e-02,
2.964000e+00,3.880000e-02,
2.964000e+00,7.372000e-02,
2.872800e+00,3.104000e-02,
2.872800e+00,5.820000e-02,
2.964000e+00,2.328000e-02,
2.964000e+00,6.208000e-02,
2.872800e+00,2.716000e-02,
3.055200e+00,6.596000e-02,
2.918400e+00,2.328000e-02,
3.055200e+00,6.984000e-02,
2.918400e+00,1.940000e-02,
2.918400e+00,2.716000e-02,
3.100800e+00,7.372000e-02,
3.009600e+00,2.716000e-02,
3.100800e+00,6.984000e-02,
3.009600e+00,2.716000e-02,
3.100800e+00,6.596000e-02,
3.009600e+00,6.208000e-02,
3.100800e+00,1.940000e-02,
3.055200e+00,2.328000e-02,
3.192000e+00,6.984000e-02,
3.055200e+00,7.760000e-02,
3.192000e+00,2.716000e-02,
3.192000e+00,8.148000e-02,
3.055200e+00,2.716000e-02,
3.192000e+00,6.984000e-02,
3.055200e+00,3.492000e-02,
3.146400e+00,7.372000e-02,
3.237600e+00,2.716000e-02,
3.146400e+00,2.716000e-02,
3.283200e+00,7.372000e-02,
3.283200e+00,8.536000e-02,
3.146400e+00,4.268000e-02,
3.146400e+00,4.268000e-02,
3.328800e+00,8.536000e-02,
3.237600e+00,3.880000e-02,
3.328800e+00,8.148000e-02,
3.328800e+00,5.044000e-02,
3.237600e+00,8.536000e-02,
3.237600e+00,8.148000e-02,
3.374400e+00,4.268000e-02,
3.283200e+00,8.924000e-02,
3.420000e+00,5.432000e-02,
3.420000e+00,9.312000e-02,
3.283200e+00,3.492000e-02,
3.283200e+00,8.148000e-02,
3.420000e+00,5.044000e-02,
3.328800e+00,8.536000e-02,
3.465600e+00,4.656000e-02,
3.374400e+00,4.268000e-02,
3.465600e+00,8.536000e-02,
3.465600e+00,5.044000e-02,
3.374400e+00,8.148000e-02,
3.374400e+00,3.492000e-02,
3.511200e+00,9.312000e-02,
3.374400e+00,4.268000e-02,
3.511200e+00,7.372000e-02,
3.420000e+00,7.372000e-02,
3.556800e+00,3.104000e-02,
3.556800e+00,7.372000e-02,
3.420000e+00,3.492000e-02,
3.420000e+00,4.656000e-02,
3.602400e+00,8.148000e-02,
3.511200e+00,8.924000e-02,
3.602400e+00,2.716000e-02,
3.602400e+00,9.312000e-02,
3.511200e+00,1.552000e-02,
3.602400e+00,3.880000e-02,
3.511200e+00,7.372000e-02,
3.511200e+00,8.148000e-02,
3.693600e+00,3.104000e-02,
3.556800e+00,5.044000e-02,
3.693600e+00,7.372000e-02,
3.693600e+00,3.492000e-02,
3.556800e+00,9.312000e-02,
3.693600e+00,4.656000e-02,
3.556800e+00,8.536000e-02,
3.648000e+00,8.536000e-02,
3.739200e+00,5.044000e-02,
3.648000e+00,5.820000e-02,
3.739200e+00,9.312000e-02,
3.648000e+00,6.596000e-02,
3.739200e+00,1.086400e-01,
3.830400e+00,5.820000e-02,
3.648000e+00,1.125200e-01,
3.830400e+00,6.208000e-02,
3.693600e+00,1.008800e-01,
3.693600e+00,1.047600e-01,
3.830400e+00,7.372000e-02,
3.830400e+00,6.208000e-02,
3.693600e+00,1.086400e-01,
3.693600e+00,7.760000e-02,
3.876000e+00,1.125200e-01,
3.784800e+00,1.202800e-01,
3.876000e+00,6.208000e-02,
3.876000e+00,1.164000e-01,
3.784800e+00,6.596000e-02,
3.876000e+00,6.208000e-02,
3.784800e+00,1.047600e-01,
3.830400e+00,5.044000e-02,
3.967200e+00,1.008800e-01,
3.967200e+00,9.700000e-02,
3.830400e+00,5.432000e-02,
3.830400e+00,1.047600e-01,
4.012800e+00,4.656000e-02,
3.876000e+00,4.656000e-02,
4.012800e+00,9.700000e-02,
4.012800e+00,8.536000e-02,
3.921600e+00,5.044000e-02,
4.012800e+00,8.924000e-02,
3.921600e+00,3.880000e-02,
3.921600e+00,3.880000e-02,
4.104000e+00,8.148000e-02,
4.012800e+00,4.656000e-02,
4.104000e+00,9.700000e-02,
4.104000e+00,9.700000e-02,
3.967200e+00,4.268000e-02,
4.104000e+00,5.044000e-02,
3.967200e+00,8.148000e-02,
4.058400e+00,8.536000e-02,
4.149600e+00,4.656000e-02,
4.195200e+00,5.820000e-02,
4.058400e+00,8.924000e-02,
4.058400e+00,1.125200e-01,
4.195200e+00,6.208000e-02,
4.195200e+00,1.047600e-01,
4.058400e+00,6.208000e-02,
4.058400e+00,7.760000e-02,
4.240800e+00,1.125200e-01,
4.149600e+00,7.760000e-02,
4.240800e+00,1.241600e-01,
4.240800e+00,7.760000e-02,
4.149600e+00,1.280400e-01,
4.240800e+00,9.700000e-02,
4.149600e+00,1.358000e-01,
4.332000e+00,1.435600e-01,
4.195200e+00,8.924000e-02,
4.332000e+00,9.312000e-02,
4.195200e+00,1.358000e-01,
4.195200e+00,1.280400e-01,
4.332000e+00,8.148000e-02,
4.377600e+00,8.536000e-02,
4.195200e+00,1.396800e-01,
4.377600e+00,1.474400e-01,
4.286400e+00,1.008800e-01,
4.377600e+00,1.396800e-01,
4.286400e+00,8.148000e-02,
4.286400e+00,1.202800e-01,
4.423200e+00,8.536000e-02,
4.332000e+00,7.760000e-02,
4.468800e+00,1.202800e-01,
4.332000e+00,1.202800e-01,
4.468800e+00,6.208000e-02,
4.332000e+00,1.086400e-01,
4.468800e+00,7.760000e-02,
4.423200e+00,1.164000e-01,
4.514400e+00,6.208000e-02,
4.423200e+00,9.700000e-02,
4.514400e+00,5.820000e-02,
4.514400e+00,6.208000e-02,
4.423200e+00,8.924000e-02,
4.514400e+00,9.312000e-02,
4.423200e+00,5.044000e-02,
4.468800e+00,6.596000e-02,
4.605600e+00,1.047600e-01,
4.605600e+00,1.086400e-01,
4.468800e+00,5.820000e-02,
4.605600e+00,6.208000e-02,
4.468800e+00,1.008800e-01,
4.560000e+00,7.760000e-02,
4.605600e+00,1.008800e-01,
4.560000e+00,6.596000e-02,
4.651200e+00,1.164000e-01,
4.651200e+00,9.312000e-02,
4.560000e+00,1.319200e-01,
4.651200e+00,8.924000e-02,
4.560000e+00,1.435600e-01,
4.742400e+00,1.008800e-01,
4.605600e+00,1.358000e-01,
4.742400e+00,1.125200e-01,
4.605600e+00,1.435600e-01,
4.742400e+00,1.086400e-01,
4.605600e+00,1.629600e-01,
4.696800e+00,1.319200e-01,
4.788000e+00,1.707200e-01,
4.696800e+00,1.746000e-01,
4.788000e+00,1.280400e-01,
4.788000e+00,1.280400e-01,
4.696800e+00,1.668400e-01,
4.788000e+00,1.358000e-01,
4.696800e+00,1.629600e-01,
4.742400e+00,1.164000e-01,
4.879200e+00,1.668400e-01,
4.879200e+00,1.513200e-01,
4.742400e+00,1.202800e-01,
4.742400e+00,1.668400e-01,
4.879200e+00,1.202800e-01,
4.788000e+00,1.513200e-01,
4.924800e+00,1.047600e-01,
4.833600e+00,1.047600e-01,
4.924800e+00,1.319200e-01,
4.833600e+00,1.358000e-01,
4.970400e+00,9.700000e-02,
4.833600e+00,9.700000e-02,
4.970400e+00,1.358000e-01,
5.016000e+00,8.148000e-02,
4.833600e+00,1.358000e-01,
4.924800e+00,8.536000e-02,
5.016000e+00,1.164000e-01,
5.016000e+00,1.164000e-01,
4.924800e+00,8.148000e-02,
4.924800e+00,1.164000e-01,
5.016000e+00,7.372000e-02,
5.107200e+00,7.760000e-02,
4.924800e+00,1.241600e-01,
4.970400e+00,1.319200e-01,
5.107200e+00,7.760000e-02,
5.107200e+00,1.241600e-01,
4.970400e+00,8.148000e-02,
5.107200e+00,9.312000e-02,
5.061600e+00,1.280400e-01,
5.061600e+00,1.008800e-01,
5.152800e+00,1.396800e-01,
5.061600e+00,1.008800e-01,
5.152800e+00,1.590800e-01,
5.061600e+00,1.202800e-01,
5.244000e+00,1.746000e-01,
5.107200e+00,1.241600e-01,
5.244000e+00,1.707200e-01,
5.107200e+00,1.435600e-01,
5.244000e+00,1.823600e-01,
5.107200e+00,1.862400e-01,
5.244000e+00,1.474400e-01,
5.289600e+00,1.552000e-01,
5.107200e+00,1.940000e-01,
5.198400e+00,2.134000e-01,
5.289600e+00,1.629600e-01,
5.289600e+00,1.668400e-01,
5.198400e+00,2.056400e-01,
5.289600e+00,1.668400e-01,
5.198400e+00,1.978800e-01,
5.244000e+00,2.017600e-01,
5.335200e+00,1.668400e-01,
5.244000e+00,1.668400e-01,
5.380800e+00,1.978800e-01,
5.380800e+00,2.017600e-01,
5.244000e+00,1.513200e-01,
5.244000e+00,1.435600e-01,
5.426400e+00,1.862400e-01,
5.426400e+00,1.668400e-01,
5.335200e+00,1.358000e-01,
5.426400e+00,1.668400e-01,
5.335200e+00,1.202800e-01,
5.335200e+00,1.164000e-01,
5.472000e+00,1.552000e-01,
5.380800e+00,1.086400e-01,
5.517600e+00,1.590800e-01,
5.517600e+00,1.513200e-01,
5.380800e+00,1.008800e-01,
5.517600e+00,1.047600e-01,
5.380800e+00,1.435600e-01,
5.517600e+00,1.008800e-01,
