franck_hertz/data/NewFile17.csv

CH1,CH2,Start,Increment,
Volt,Volt,-6.000000e-02,1.000000e-04
2.087400e+00,8.400000e-03,
2.016400e+00,4.720000e-02,
2.115800e+00,4.720000e-02,
0.000000e+00,-3.800000e-03,
0.000000e+00,-3.800000e-03,
5.680000e-02,3.400000e-03,
0.000000e+00,-3.800000e-03,
7.100000e-02,2.800000e-03,
0.000000e+00,-3.800000e-03,
5.680000e-02,3.200000e-03,
5.680000e-02,-3.800000e-03,
0.000000e+00,1.600000e-03,
5.680000e-02,-3.800000e-03,
0.000000e+00,1.800000e-03,
0.000000e+00,-3.800000e-03,
5.680000e-02,1.800000e-03,
0.000000e+00,-3.800000e-03,
5.680000e-02,2.200000e-03,
5.680000e-02,-3.800000e-03,
0.000000e+00,1.980000e-02,
-1.420000e-02,-3.800000e-03,
7.100000e-02,2.580000e-02,
7.100000e-02,-3.800000e-03,
-1.420000e-02,2.540000e-02,
-1.420000e-02,-3.800000e-03,
7.100000e-02,2.520000e-02,
0.000000e+00,-3.800000e-03,
8.520000e-02,2.620000e-02,
8.520000e-02,-3.800000e-03,
-1.420000e-02,2.540000e-02,
7.100000e-02,-3.800000e-03,
-1.420000e-02,2.400000e-02,
0.000000e+00,-3.800000e-03,
8.520000e-02,2.200000e-02,
-1.420000e-02,-3.800000e-03,
8.520000e-02,2.560000e-02,
0.000000e+00,-3.800000e-03,
7.100000e-02,2.040000e-02,
-1.420000e-02,-3.800000e-03,
7.100000e-02,2.400000e-02,
-1.420000e-02,-3.800000e-03,
7.100000e-02,1.340000e-02,
0.000000e+00,-3.800000e-03,
5.680000e-02,2.000000e-03,
5.680000e-02,-3.800000e-03,
0.000000e+00,2.400000e-03,
0.000000e+00,-3.800000e-03,
5.680000e-02,3.200000e-03,
5.680000e-02,-3.800000e-03,
0.000000e+00,2.000000e-03,
0.000000e+00,-3.800000e-03,
7.100000e-02,6.400000e-03,
0.000000e+00,-3.800000e-03,
5.680000e-02,1.400000e-03,
0.000000e+00,-3.800000e-03,
5.680000e-02,1.400000e-03,
5.680000e-02,-3.800000e-03,
0.000000e+00,2.400000e-03,
0.000000e+00,-3.800000e-03,
5.680000e-02,2.200000e-03,
0.000000e+00,-3.800000e-03,
7.100000e-02,2.340000e-02,
0.000000e+00,-3.800000e-03,
7.100000e-02,1.000000e-03,
5.680000e-02,-3.800000e-03,
0.000000e+00,2.800000e-03,
5.680000e-02,-3.800000e-03,
0.000000e+00,1.200000e-03,
0.000000e+00,-3.800000e-03,
7.100000e-02,1.300000e-02,
0.000000e+00,-3.800000e-03,
7.100000e-02,4.000000e-04,
0.000000e+00,-3.800000e-03,
7.100000e-02,8.000000e-04,
0.000000e+00,-3.800000e-03,
7.100000e-02,8.000000e-04,
0.000000e+00,-3.800000e-03,
7.100000e-02,2.000000e-03,
0.000000e+00,-3.800000e-03,
7.100000e-02,3.000000e-03,
7.100000e-02,-3.800000e-03,
0.000000e+00,4.600000e-03,
0.000000e+00,-3.800000e-03,
7.100000e-02,2.920000e-02,
0.000000e+00,-3.800000e-03,
7.100000e-02,2.200000e-03,
0.000000e+00,-3.800000e-03,
7.100000e-02,2.000000e-03,
0.000000e+00,-3.800000e-03,
7.100000e-02,2.000000e-03,
0.000000e+00,-3.800000e-03,
7.100000e-02,3.000000e-03,
7.100000e-02,-3.800000e-03,
0.000000e+00,1.800000e-03,
0.000000e+00,-3.800000e-03,
7.100000e-02,2.800000e-03,
0.000000e+00,-3.800000e-03,
7.100000e-02,3.000000e-03,
4.686000e-01,-3.800000e-03,
-1.988000e-01,1.560000e-02,
1.136000e-01,2.600000e-03,
0.000000e+00,2.340000e-02,
1.136000e-01,3.780000e-02,
4.260000e-02,-3.800000e-03,
1.136000e-01,2.360000e-02,
4.260000e-02,4.400000e-03,
5.680000e-02,2.600000e-03,
1.278000e-01,2.360000e-02,
7.100000e-02,5.200000e-03,
1.420000e-01,2.560000e-02,
7.100000e-02,2.480000e-02,
1.562000e-01,3.600000e-03,
9.940000e-02,5.200000e-03,
1.562000e-01,2.520000e-02,
9.940000e-02,2.460000e-02,
1.704000e-01,4.200000e-03,
1.136000e-01,3.400000e-03,
1.846000e-01,2.480000e-02,
1.136000e-01,2.660000e-02,
1.988000e-01,1.800000e-03,
1.278000e-01,3.200000e-03,
1.988000e-01,2.820000e-02,
2.130000e-01,2.600000e-03,
1.278000e-01,2.280000e-02,
1.420000e-01,1.800000e-03,
2.130000e-01,2.460000e-02,
1.562000e-01,3.200000e-03,
2.272000e-01,2.440000e-02,
1.704000e-01,-3.800000e-03,
2.414000e-01,2.680000e-02,
2.414000e-01,2.400000e-02,
1.846000e-01,6.000000e-04,
1.846000e-01,2.440000e-02,
2.698000e-01,2.000000e-03,
1.988000e-01,2.600000e-02,
2.840000e-01,2.200000e-03,
2.840000e-01,1.600000e-03,
1.988000e-01,2.540000e-02,
2.840000e-01,2.600000e-02,
2.130000e-01,1.200000e-03,
2.272000e-01,2.440000e-02,
2.982000e-01,2.600000e-03,
2.414000e-01,-3.800000e-03,
3.124000e-01,2.880000e-02,
2.556000e-01,2.540000e-02,
3.408000e-01,3.000000e-03,
2.698000e-01,3.400000e-03,
3.408000e-01,2.440000e-02,
3.408000e-01,2.460000e-02,
2.698000e-01,3.800000e-03,
2.840000e-01,3.000000e-03,
3.550000e-01,2.500000e-02,
3.550000e-01,-3.800000e-03,
2.840000e-01,3.660000e-02,
3.692000e-01,2.360000e-02,
2.982000e-01,2.600000e-03,
2.982000e-01,4.000000e-03,
3.834000e-01,2.420000e-02,
3.834000e-01,6.200000e-03,
3.266000e-01,2.420000e-02,
3.266000e-01,4.700000e-02,
4.118000e-01,-3.800000e-03,
3.408000e-01,6.200000e-03,
4.260000e-01,2.560000e-02,
3.550000e-01,4.400000e-03,
4.260000e-01,2.640000e-02,
3.550000e-01,4.000000e-03,
4.402000e-01,2.420000e-02,
3.692000e-01,4.600000e-03,
4.544000e-01,2.500000e-02,
3.550000e-01,-3.800000e-03,
4.544000e-01,4.040000e-02,
3.834000e-01,2.600000e-02,
4.686000e-01,4.200000e-03,
3.976000e-01,2.460000e-02,
4.686000e-01,2.400000e-03,
4.118000e-01,3.000000e-03,
4.828000e-01,2.580000e-02,
4.260000e-01,2.280000e-02,
4.970000e-01,3.400000e-03,
4.970000e-01,2.220000e-02,
4.260000e-01,3.800000e-03,
5.112000e-01,2.400000e-02,
4.402000e-01,4.000000e-03,
4.402000e-01,4.400000e-03,
5.254000e-01,2.260000e-02,
4.544000e-01,4.720000e-02,
5.538000e-01,-3.800000e-03,
4.686000e-01,2.320000e-02,
5.396000e-01,3.800000e-03,
4.828000e-01,3.000000e-03,
5.538000e-01,2.280000e-02,
4.828000e-01,2.240000e-02,
5.680000e-01,3.600000e-03,
4.970000e-01,2.240000e-02,
5.680000e-01,2.200000e-03,
5.112000e-01,3.800000e-03,
5.822000e-01,2.340000e-02,
5.112000e-01,3.200000e-03,
5.964000e-01,2.360000e-02,
5.396000e-01,2.800000e-03,
5.964000e-01,2.420000e-02,
5.396000e-01,2.300000e-02,
6.106000e-01,2.800000e-03,
5.538000e-01,2.440000e-02,
6.106000e-01,2.200000e-03,
5.538000e-01,2.120000e-02,
6.390000e-01,2.000000e-04,
6.390000e-01,3.080000e-02,
5.680000e-01,-3.800000e-03,
5.822000e-01,-2.000000e-04,
6.532000e-01,2.540000e-02,
5.822000e-01,0.000000e+00,
6.532000e-01,2.360000e-02,
5.964000e-01,2.280000e-02,
6.674000e-01,2.000000e-04,
6.248000e-01,2.340000e-02,
6.816000e-01,-4.000000e-04,
6.248000e-01,-4.000000e-04,
6.816000e-01,2.460000e-02,
6.248000e-01,2.320000e-02,
7.100000e-01,-1.200000e-03,
6.248000e-01,1.200000e-03,
7.100000e-01,2.360000e-02,
6.532000e-01,2.200000e-02,
7.242000e-01,8.000000e-04,
7.242000e-01,2.180000e-02,
6.532000e-01,-4.000000e-04,
6.674000e-01,1.000000e-03,
7.384000e-01,2.200000e-02,
6.816000e-01,2.100000e-02,
7.384000e-01,-4.000000e-04,
6.958000e-01,3.020000e-02,
7.526000e-01,-3.800000e-03,
7.100000e-01,1.000000e-03,
7.810000e-01,1.960000e-02,
7.100000e-01,1.800000e-03,
7.810000e-01,2.120000e-02,
7.242000e-01,2.400000e-03,
7.952000e-01,2.080000e-02,
7.242000e-01,2.440000e-02,
8.094000e-01,2.200000e-03,
7.384000e-01,2.140000e-02,
8.094000e-01,1.600000e-03,
8.094000e-01,2.260000e-02,
7.384000e-01,1.000000e-03,
7.668000e-01,4.720000e-02,
8.236000e-01,-3.800000e-03,
7.668000e-01,2.380000e-02,
8.378000e-01,1.400000e-03,
7.810000e-01,2.280000e-02,
8.520000e-01,2.200000e-03,
7.810000e-01,1.800000e-03,
8.662000e-01,2.200000e-02,
7.952000e-01,-3.800000e-03,
8.804000e-01,4.220000e-02,
8.094000e-01,1.400000e-03,
8.804000e-01,2.200000e-02,
8.094000e-01,3.200000e-03,
8.946000e-01,2.260000e-02,
8.378000e-01,2.260000e-02,
8.946000e-01,2.400000e-03,
8.378000e-01,4.720000e-02,
9.088000e-01,-3.800000e-03,
8.520000e-01,3.200000e-03,
9.088000e-01,2.260000e-02,
8.662000e-01,2.240000e-02,
9.230000e-01,1.600000e-03,
8.662000e-01,3.200000e-03,
9.372000e-01,2.200000e-02,
8.804000e-01,2.000000e-03,
9.514000e-01,2.200000e-02,
8.804000e-01,-3.800000e-03,
9.798000e-01,4.720000e-02,
9.656000e-01,2.260000e-02,
9.088000e-01,3.400000e-03,
9.088000e-01,2.220000e-02,
9.798000e-01,3.000000e-03,
9.230000e-01,2.200000e-03,
9.798000e-01,2.160000e-02,
9.230000e-01,1.800000e-03,
9.940000e-01,2.300000e-02,
9.372000e-01,2.400000e-03,
1.008200e+00,2.320000e-02,
9.372000e-01,2.240000e-02,
1.022400e+00,3.400000e-03,
1.022400e+00,2.460000e-02,
9.514000e-01,2.000000e-03,
9.656000e-01,2.440000e-02,
1.036600e+00,1.600000e-03,
9.798000e-01,2.080000e-02,
1.050800e+00,2.000000e-04,
9.940000e-01,2.560000e-02,
1.050800e+00,-3.800000e-03,
9.940000e-01,-8.000000e-04,
1.079200e+00,2.420000e-02,
1.079200e+00,4.000000e-04,
1.008200e+00,2.420000e-02,
1.022400e+00,2.280000e-02,
1.093400e+00,-6.000000e-04,
1.093400e+00,1.600000e-03,
1.022400e+00,2.340000e-02,
1.036600e+00,2.400000e-02,
1.107600e+00,-4.000000e-04,
1.050800e+00,2.000000e-04,
1.121800e+00,2.380000e-02,
1.065000e+00,0.000000e+00,
1.121800e+00,2.360000e-02,
1.065000e+00,-2.000000e-04,
1.136000e+00,2.260000e-02,
1.079200e+00,1.200000e-03,
1.150200e+00,2.320000e-02,
1.093400e+00,2.000000e-03,
1.164400e+00,2.360000e-02,
1.164400e+00,3.400000e-03,
1.093400e+00,2.440000e-02,
1.093400e+00,4.080000e-02,
1.178600e+00,-3.800000e-03,
1.107600e+00,4.400000e-03,
1.192800e+00,2.420000e-02,
1.136000e+00,2.160000e-02,
1.192800e+00,1.000000e-03,
1.150200e+00,1.800000e-03,
1.207000e+00,2.280000e-02,
1.150200e+00,3.800000e-03,
1.221200e+00,2.380000e-02,
1.150200e+00,2.460000e-02,
1.235400e+00,5.000000e-03,
1.164400e+00,4.800000e-03,
1.249600e+00,2.280000e-02,
1.178600e+00,2.480000e-02,
1.249600e+00,3.800000e-03,
1.249600e+00,4.600000e-03,
1.192800e+00,2.360000e-02,
1.263800e+00,4.000000e-03,
1.192800e+00,2.460000e-02,
1.207000e+00,4.720000e-02,
1.278000e+00,-3.800000e-03,
1.221200e+00,2.820000e-02,
1.292200e+00,5.200000e-03,
1.235400e+00,4.800000e-03,
1.306400e+00,2.560000e-02,
1.306400e+00,3.800000e-03,
1.235400e+00,2.500000e-02,
1.249600e+00,4.800000e-03,
1.320600e+00,2.480000e-02,
1.249600e+00,-3.800000e-03,
1.334800e+00,4.260000e-02,
1.334800e+00,2.440000e-02,
1.263800e+00,5.400000e-03,
1.278000e+00,2.440000e-02,
1.349000e+00,5.200000e-03,
1.292200e+00,2.460000e-02,
1.349000e+00,3.000000e-03,
1.306400e+00,2.540000e-02,
1.377400e+00,3.600000e-03,
1.405800e+00,4.720000e-02,
1.306400e+00,-3.800000e-03,
1.320600e+00,4.200000e-03,
1.391600e+00,2.440000e-02,
1.320600e+00,2.460000e-02,
1.405800e+00,4.400000e-03,
1.334800e+00,2.480000e-02,
1.405800e+00,4.800000e-03,
1.349000e+00,4.680000e-02,
1.420000e+00,-3.800000e-03,
1.363200e+00,2.520000e-02,
1.420000e+00,4.200000e-03,
1.363200e+00,2.580000e-02,
1.434200e+00,5.000000e-03,
1.377400e+00,4.800000e-03,
1.448400e+00,2.680000e-02,
1.377400e+00,2.420000e-02,
1.462600e+00,3.000000e-03,
1.391600e+00,2.560000e-02,
1.462600e+00,4.600000e-03,
1.405800e+00,4.200000e-02,
1.476800e+00,-3.800000e-03,
1.405800e+00,4.200000e-03,
1.491000e+00,2.680000e-02,
1.434200e+00,2.600000e-03,
1.491000e+00,2.680000e-02,
1.434200e+00,2.620000e-02,
1.505200e+00,2.400000e-03,
1.448400e+00,5.000000e-03,
1.519400e+00,2.780000e-02,
1.448400e+00,2.700000e-02,
1.533600e+00,3.400000e-03,
1.462600e+00,2.720000e-02,
1.547800e+00,5.000000e-03,
1.476800e+00,4.600000e-03,
1.547800e+00,2.800000e-02,
1.491000e+00,2.560000e-02,
1.547800e+00,5.600000e-03,
1.505200e+00,2.720000e-02,
1.562000e+00,6.000000e-03,
1.505200e+00,6.200000e-03,
1.590400e+00,2.640000e-02,
1.519400e+00,4.260000e-02,
1.590400e+00,-3.800000e-03,
1.519400e+00,5.000000e-03,
1.604600e+00,2.480000e-02,
1.604600e+00,7.400000e-03,
1.533600e+00,2.560000e-02,
1.547800e+00,8.800000e-03,
1.618800e+00,2.640000e-02,
1.547800e+00,9.000000e-03,
1.618800e+00,3.180000e-02,
1.576200e+00,2.960000e-02,
1.633000e+00,8.600000e-03,
1.647200e+00,2.940000e-02,
1.576200e+00,8.600000e-03,
1.576200e+00,7.800000e-03,
1.661400e+00,2.920000e-02,
1.590400e+00,7.800000e-03,
1.675600e+00,2.980000e-02,
1.604600e+00,8.400000e-03,
1.689800e+00,2.980000e-02,
1.604600e+00,9.200000e-03,
1.689800e+00,3.020000e-02,
1.689800e+00,3.020000e-02,
1.618800e+00,8.000000e-03,
1.704000e+00,9.000000e-03,
1.633000e+00,3.060000e-02,
1.633000e+00,-3.800000e-03,
1.718200e+00,4.720000e-02,
1.661400e+00,3.100000e-02,
1.718200e+00,9.800000e-03,
1.718200e+00,1.240000e-02,
1.661400e+00,3.160000e-02,
1.675600e+00,3.240000e-02,
1.760800e+00,1.220000e-02,
1.689800e+00,1.200000e-02,
1.760800e+00,3.300000e-02,
1.689800e+00,3.220000e-02,
1.775000e+00,1.220000e-02,
1.704000e+00,1.360000e-02,
1.775000e+00,3.440000e-02,
1.718200e+00,1.340000e-02,
1.775000e+00,3.300000e-02,
1.732400e+00,4.720000e-02,
1.817600e+00,-3.800000e-03,
1.732400e+00,1.260000e-02,
1.789200e+00,3.360000e-02,
1.746600e+00,1.480000e-02,
1.817600e+00,3.400000e-02,
1.817600e+00,1.560000e-02,
1.746600e+00,3.540000e-02,
1.760800e+00,1.360000e-02,
1.831800e+00,3.480000e-02,
1.760800e+00,4.720000e-02,
1.860200e+00,6.200000e-03,
1.775000e+00,3.640000e-02,
1.860200e+00,1.400000e-02,
1.860200e+00,3.880000e-02,
1.789200e+00,1.600000e-02,
1.803400e+00,1.520000e-02,
1.874400e+00,3.580000e-02,
1.817600e+00,4.720000e-02,
1.888600e+00,1.400000e-02,
1.817600e+00,3.700000e-02,
1.902800e+00,1.480000e-02,
1.831800e+00,3.660000e-02,
1.902800e+00,1.380000e-02,
1.831800e+00,3.800000e-02,
1.917000e+00,1.420000e-02,
1.846000e+00,4.420000e-02,
1.931200e+00,8.800000e-03,
1.931200e+00,3.740000e-02,
1.846000e+00,1.540000e-02,
1.874400e+00,3.860000e-02,
1.945400e+00,1.480000e-02,
1.959600e+00,1.580000e-02,
1.874400e+00,3.940000e-02,
1.888600e+00,1.760000e-02,
1.973800e+00,3.920000e-02,
1.902800e+00,1.540000e-02,
1.973800e+00,3.960000e-02,
1.917000e+00,3.940000e-02,
1.988000e+00,1.780000e-02,
1.917000e+00,1.920000e-02,
1.988000e+00,4.720000e-02,
1.945400e+00,3.980000e-02,
2.016400e+00,1.920000e-02,
1.945400e+00,4.140000e-02,
2.016400e+00,2.120000e-02,
1.945400e+00,4.000000e-02,
2.044800e+00,1.820000e-02,
1.959600e+00,1.840000e-02,
2.044800e+00,3.920000e-02,
1.973800e+00,1.920000e-02,
2.044800e+00,4.100000e-02,
1.973800e+00,4.220000e-02,
2.059000e+00,2.140000e-02,
1.988000e+00,2.160000e-02,
2.059000e+00,4.000000e-02,
2.016400e+00,2.240000e-02,
2.073200e+00,4.120000e-02,
2.087400e+00,4.220000e-02,
0.000000e+00,-3.800000e-03,
5.680000e-02,-3.800000e-03,
0.000000e+00,2.200000e-03,
0.000000e+00,-3.800000e-03,
5.680000e-02,2.600000e-03,
0.000000e+00,-3.800000e-03,
5.680000e-02,2.400000e-03,
5.680000e-02,-3.800000e-03,
0.000000e+00,4.400000e-03,
0.000000e+00,-3.800000e-03,
7.100000e-02,2.760000e-02,
5.680000e-02,-3.800000e-03,
0.000000e+00,1.400000e-03,
0.000000e+00,-3.800000e-03,
7.100000e-02,1.800000e-03,
5.680000e-02,-3.800000e-03,
0.000000e+00,1.000000e-03,
5.680000e-02,-3.800000e-03,
0.000000e+00,1.800000e-03,
5.680000e-02,-3.800000e-03,
0.000000e+00,2.800000e-03,
5.680000e-02,-3.800000e-03,
0.000000e+00,2.000000e-03,
5.680000e-02,-3.800000e-03,
0.000000e+00,2.400000e-03,
5.680000e-02,-3.800000e-03,
0.000000e+00,1.200000e-03,
0.000000e+00,-3.800000e-03,
5.680000e-02,6.000000e-04,
0.000000e+00,-3.800000e-03,
5.680000e-02,2.000000e-03,
5.680000e-02,-3.800000e-03,
0.000000e+00,2.280000e-02,
5.680000e-02,-3.800000e-03,
0.000000e+00,1.200000e-03,
5.680000e-02,-3.800000e-03,
0.000000e+00,2.200000e-03,
0.000000e+00,-3.800000e-03,
5.680000e-02,3.000000e-03,
5.680000e-02,-3.800000e-03,
0.000000e+00,2.600000e-03,
5.680000e-02,-3.800000e-03,
0.000000e+00,4.000000e-04,
0.000000e+00,-3.800000e-03,
7.100000e-02,1.160000e-02,
0.000000e+00,-3.800000e-03,
7.100000e-02,1.800000e-03,
5.680000e-02,-3.800000e-03,
0.000000e+00,3.200000e-03,
5.680000e-02,-3.800000e-03,
0.000000e+00,2.600000e-03,
5.680000e-02,-3.800000e-03,
0.000000e+00,8.600000e-03,
5.680000e-02,-3.800000e-03,
0.000000e+00,1.600000e-03,
5.680000e-02,-3.800000e-03,
0.000000e+00,3.200000e-03,
0.000000e+00,-3.800000e-03,
7.100000e-02,1.800000e-03,
0.000000e+00,-3.800000e-03,
7.100000e-02,8.200000e-03,
0.000000e+00,-3.800000e-03,
7.100000e-02,2.200000e-03,
0.000000e+00,-3.800000e-03,
7.100000e-02,2.200000e-03,
5.680000e-02,-3.800000e-03,
0.000000e+00,1.000000e-03,
5.680000e-02,-3.800000e-03,
0.000000e+00,1.400000e-03,
0.000000e+00,-3.800000e-03,
7.100000e-02,1.560000e-02,
5.680000e-02,-3.800000e-03,
0.000000e+00,1.200000e-03,
7.100000e-02,-3.800000e-03,
0.000000e+00,1.600000e-03,
5.680000e-02,-3.800000e-03,
0.000000e+00,1.200000e-03,
0.000000e+00,-3.800000e-03,
7.100000e-02,1.800000e-03,
0.000000e+00,-3.800000e-03,
7.100000e-02,3.200000e-03,
5.680000e-02,-3.800000e-03,
0.000000e+00,3.200000e-03,
0.000000e+00,-3.800000e-03,
7.100000e-02,2.200000e-03,
0.000000e+00,-3.800000e-03,
7.100000e-02,2.200000e-03,
0.000000e+00,-3.800000e-03,
7.100000e-02,2.480000e-02,
7.100000e-02,-3.800000e-03,
0.000000e+00,3.000000e-03,
7.100000e-02,-3.800000e-03,
0.000000e+00,2.200000e-03,
0.000000e+00,-3.800000e-03,
7.100000e-02,3.600000e-03,
0.000000e+00,-3.800000e-03,
7.100000e-02,4.200000e-03,
0.000000e+00,-3.800000e-03,
7.100000e-02,8.000000e-04,
7.100000e-02,-3.800000e-03,
-8.520000e-02,1.400000e-03,
4.686000e-01,-3.800000e-03,
-1.988000e-01,2.260000e-02,
1.136000e-01,2.200000e-03,
4.260000e-02,2.280000e-02,
5.680000e-02,2.360000e-02,
1.278000e-01,3.800000e-03,
1.278000e-01,2.000000e-03,
5.680000e-02,2.460000e-02,
7.100000e-02,3.000000e-03,
1.420000e-01,2.380000e-02,
7.100000e-02,2.800000e-03,
1.562000e-01,2.500000e-02,
9.940000e-02,2.540000e-02,
1.704000e-01,4.800000e-03,
9.940000e-02,2.440000e-02,
1.704000e-01,3.400000e-03,
1.136000e-01,2.980000e-02,
1.846000e-01,-3.800000e-03,
1.278000e-01,3.600000e-03,
1.988000e-01,2.460000e-02,
1.278000e-01,2.600000e-03,
1.988000e-01,2.460000e-02,
1.420000e-01,2.740000e-02,
2.130000e-01,8.000000e-04,
2.130000e-01,1.200000e-03,
1.420000e-01,2.460000e-02,
1.562000e-01,2.380000e-02,
2.272000e-01,-4.000000e-04,
1.704000e-01,2.460000e-02,
2.414000e-01,4.000000e-04,
1.846000e-01,2.480000e-02,
2.414000e-01,1.200000e-03,
1.846000e-01,2.420000e-02,
2.698000e-01,2.000000e-03,
2.698000e-01,4.000000e-04,
1.988000e-01,2.560000e-02,
1.988000e-01,-2.200000e-03,
2.840000e-01,3.260000e-02,
2.130000e-01,2.460000e-02,
2.840000e-01,2.000000e-03,
2.272000e-01,2.460000e-02,
2.982000e-01,1.400000e-03,
2.414000e-01,2.600000e-02,
3.124000e-01,2.800000e-03,
2.556000e-01,2.500000e-02,
3.266000e-01,2.600000e-03,
2.698000e-01,-3.800000e-03,
3.408000e-01,3.540000e-02,
2.698000e-01,2.540000e-02,
3.408000e-01,4.200000e-03,
2.698000e-01,4.400000e-03,
3.550000e-01,2.520000e-02,
2.840000e-01,2.380000e-02,
3.550000e-01,3.400000e-03,
2.840000e-01,3.460000e-02,
3.834000e-01,-3.800000e-03,
3.124000e-01,2.320000e-02,
3.834000e-01,4.000000e-03,
3.266000e-01,2.360000e-02,
3.834000e-01,4.400000e-03,
3.266000e-01,4.800000e-03,
4.118000e-01,2.380000e-02,
3.408000e-01,3.300000e-02,
4.260000e-01,-2.600000e-03,
3.408000e-01,2.480000e-02,
4.260000e-01,4.200000e-03,
3.550000e-01,2.420000e-02,
4.402000e-01,0.000000e+00,
3.692000e-01,4.000000e-03,
4.402000e-01,2.520000e-02,
3.692000e-01,2.800000e-02,
4.544000e-01,5.000000e-03,
4.544000e-01,-3.800000e-03,
3.976000e-01,3.800000e-02,
3.976000e-01,2.320000e-02,
4.828000e-01,3.800000e-03,
4.118000e-01,2.500000e-02,
4.828000e-01,3.000000e-03,
4.118000e-01,3.600000e-03,
4.970000e-01,2.420000e-02,
4.970000e-01,2.280000e-02,
4.260000e-01,2.600000e-03,
4.402000e-01,3.200000e-03,
5.112000e-01,2.300000e-02,
5.112000e-01,2.240000e-02,
4.402000e-01,2.200000e-03,
4.686000e-01,2.440000e-02,
5.254000e-01,3.200000e-03,
4.686000e-01,3.200000e-03,
5.396000e-01,2.360000e-02,
4.828000e-01,2.500000e-02,
5.538000e-01,3.000000e-03,
4.828000e-01,2.320000e-02,
5.680000e-01,3.000000e-03,
4.970000e-01,4.660000e-02,
5.822000e-01,-3.800000e-03,
5.112000e-01,1.600000e-03,
5.822000e-01,2.200000e-02,
5.254000e-01,2.380000e-02,
5.822000e-01,2.600000e-03,
5.396000e-01,1.600000e-03,
5.964000e-01,2.320000e-02,
5.396000e-01,2.600000e-03,
6.106000e-01,2.360000e-02,
5.538000e-01,3.400000e-03,
6.106000e-01,2.720000e-02,
5.538000e-01,0.000000e+00,
6.390000e-01,2.020000e-02,
5.680000e-01,2.220000e-02,
6.532000e-01,-1.000000e-03,
5.822000e-01,6.000000e-04,
6.532000e-01,2.340000e-02,
6.532000e-01,6.000000e-04,
5.822000e-01,2.360000e-02,
5.964000e-01,4.000000e-04,
6.674000e-01,2.260000e-02,
6.106000e-01,2.380000e-02,
6.816000e-01,-1.200000e-03,
6.248000e-01,2.420000e-02,
6.816000e-01,-2.000000e-04,
6.248000e-01,-3.800000e-03,
7.100000e-01,3.040000e-02,
7.100000e-01,2.280000e-02,
6.390000e-01,-3.000000e-03,
6.532000e-01,2.300000e-02,
7.242000e-01,-8.000000e-04,
7.242000e-01,2.180000e-02,
6.532000e-01,1.400000e-03,
6.674000e-01,8.000000e-04,
7.384000e-01,2.160000e-02,
7.384000e-01,2.080000e-02,
6.674000e-01,-2.000000e-04,
